,artikelnr:,text:,jci1.0:,jci1.3:,versie:
0,/Hoofdstuk2/Afdeling2.1/Artikel2:1, $ Lid1 :  $  Een ieder kan zich ter behartiging van zijn belangen in het verkeer met bestuursorganen laten bijstaan of door een gemachtigde laten vertegenwoordigen.  $ Lid2 :  $  Het bestuursorgaan kan van een gemachtigde een schriftelijke machtiging verlangen.,1.0:c:BWBR0005537&artikel=2%3A1&g=2019-11-14,jci1.3:c:BWBR0005537&hoofdstuk=2&afdeling=2.1&artikel=2:1&z=2019-11-14&g=2019-11-14,01-01-1994
1,/Hoofdstuk2/Afdeling2.1/Artikel2:2," $ Lid1 :  $  Het bestuursorgaan kan bijstand of vertegenwoordiging door een persoon tegen wie ernstige bezwaren bestaan, weigeren.  $ Lid2 :  $  De belanghebbende en de in het eerste lid bedoelde persoon worden van de weigering onverwijld schriftelijk in kennis gesteld.  $ Lid3 :  $  Het eerste lid is niet van toepassing ten aanzien van advocaten.",1.0:c:BWBR0005537&artikel=2%3A2&g=2019-11-14,jci1.3:c:BWBR0005537&hoofdstuk=2&afdeling=2.1&artikel=2:2&z=2019-11-14&g=2019-11-14,01-09-2008
2,/Hoofdstuk2/Afdeling2.1/Artikel2:3," $ Lid1 :  $  Het bestuursorgaan zendt geschriften tot behandeling waarvan kennelijk een ander bestuursorgaan bevoegd is, onverwijld door naar dat orgaan, onder gelijktijdige mededeling daarvan aan de afzender.  $ Lid2 :  $  Het bestuursorgaan zendt geschriften die niet voor hem bestemd zijn en die ook niet worden doorgezonden, zo spoedig mogelijk terug aan de afzender.",1.0:c:BWBR0005537&artikel=2%3A3&g=2019-11-14,jci1.3:c:BWBR0005537&hoofdstuk=2&afdeling=2.1&artikel=2:3&z=2019-11-14&g=2019-11-14,01-01-1994
3,/Hoofdstuk2/Afdeling2.1/Artikel2:4," $ Lid1 :  $  Het bestuursorgaan vervult zijn taak zonder vooringenomenheid.  $ Lid2 :  $  Het bestuursorgaan waakt ertegen dat tot het bestuursorgaan behorende of daarvoor werkzame personen die een persoonlijk belang bij een besluit hebben, de besluitvorming benvloeden.",1.0:c:BWBR0005537&artikel=2%3A4&g=2019-11-14,jci1.3:c:BWBR0005537&hoofdstuk=2&afdeling=2.1&artikel=2:4&z=2019-11-14&g=2019-11-14,01-01-1994
4,/Hoofdstuk2/Afdeling2.1/Artikel2:5," $ Lid1 :  $  Een ieder die is betrokken bij de uitvoering van de taak van een bestuursorgaan en daarbij de beschikking krijgt over gegevens waarvan hij het vertrouwelijke karakter kent of redelijkerwijs moet vermoeden, en voor wie niet reeds uit hoofde van ambt, beroep of wettelijk voorschrift ter zake van die gegevens een geheimhoudingsplicht geldt, is verplicht tot geheimhouding van die gegevens, behoudens voor zover enig wettelijk voorschrift hem tot mededeling verplicht of uit zijn taak de noodzaak tot mededeling voortvloeit.  $ Lid2 :  $  Het eerste lid is mede van toepassing op instellingen en daartoe behorende of daarvoor werkzame personen die door een bestuursorgaan worden betrokken bij de uitvoering van zijn taak, en op instellingen en daartoe behorende of daarvoor werkzame personen die een bij of krachtens de wet toegekende taak uitoefenen.",1.0:c:BWBR0005537&artikel=2%3A5&g=2019-11-14,jci1.3:c:BWBR0005537&hoofdstuk=2&afdeling=2.1&artikel=2:5&z=2019-11-14&g=2019-11-14,01-01-1994
5,/Hoofdstuk2/Afdeling2.2/Artikel2:6," $ Lid1 :  $  Bestuursorganen en onder hun verantwoordelijkheid werkzame personen gebruiken de Nederlandse taal, tenzij bij wettelijk voorschrift anders is bepaald.  $ Lid2 :  $  In afwijking van het eerste lid kan een andere taal worden gebruikt indien het gebruik daarvan doelmatiger is en de belangen van derden daardoor niet onevenredig worden geschaad.",1.0:c:BWBR0005537&artikel=2%3A6&g=2019-11-14,jci1.3:c:BWBR0005537&hoofdstuk=2&afdeling=2.2&artikel=2:6&z=2019-11-14&g=2019-11-14,01-07-1995
6,/Hoofdstuk2/Afdeling2.2/Artikel2:7,,1.0:c:BWBR0005537&artikel=2%3A7&g=2019-11-14,jci1.3:c:BWBR0005537&hoofdstuk=2&afdeling=2.2&artikel=2:7&z=2019-11-14&g=2019-11-14,01-01-2014
7,/Hoofdstuk2/Afdeling2.2/Artikel2:8,,1.0:c:BWBR0005537&artikel=2%3A8&g=2019-11-14,jci1.3:c:BWBR0005537&hoofdstuk=2&afdeling=2.2&artikel=2:8&z=2019-11-14&g=2019-11-14,01-01-2014
8,/Hoofdstuk2/Afdeling2.2/Artikel2:9,,1.0:c:BWBR0005537&artikel=2%3A9&g=2019-11-14,jci1.3:c:BWBR0005537&hoofdstuk=2&afdeling=2.2&artikel=2:9&z=2019-11-14&g=2019-11-14,01-01-2014
9,/Hoofdstuk2/Afdeling2.2/Artikel2:10,,1.0:c:BWBR0005537&artikel=2%3A10&g=2019-11-14,jci1.3:c:BWBR0005537&hoofdstuk=2&afdeling=2.2&artikel=2:10&z=2019-11-14&g=2019-11-14,01-01-2014
10,/Hoofdstuk2/Afdeling2.2/Artikel2:11,,1.0:c:BWBR0005537&artikel=2%3A11&g=2019-11-14,jci1.3:c:BWBR0005537&hoofdstuk=2&afdeling=2.2&artikel=2:11&z=2019-11-14&g=2019-11-14,01-01-2014
11,/Hoofdstuk2/Afdeling2.2/Artikel2:12,,1.0:c:BWBR0005537&artikel=2%3A12&g=2019-11-14,jci1.3:c:BWBR0005537&hoofdstuk=2&afdeling=2.2&artikel=2:12&z=2019-11-14&g=2019-11-14,01-01-2014
12,/Hoofdstuk2/Afdeling2.3/Artikel2:13," $ Lid1 :  $  In het verkeer tussen burgers en bestuursorganen kan een bericht elektronisch worden verzonden, mits de bepalingen van deze afdeling in acht worden genomen.  $ Lid2 :  $  Het eerste lid geldt niet, indien:  $ Onderdeela :  $  dit bij of krachtens wettelijk voorschrift is bepaald, of  $ Onderdeelb :  $  een vormvoorschrift zich tegen elektronische verzending verzet.",1.0:c:BWBR0005537&artikel=2%3A13&g=2019-11-14,jci1.3:c:BWBR0005537&hoofdstuk=2&afdeling=2.3&artikel=2:13&z=2019-11-14&g=2019-11-14,01-07-2004
13,/Hoofdstuk2/Afdeling2.3/Artikel2:14," $ Lid1 :  $  Een bestuursorgaan kan een bericht dat tot een of meer geadresseerden is gericht, elektronisch verzenden voor zover de geadresseerde kenbaar heeft gemaakt dat hij langs deze weg voldoende bereikbaar is.  $ Lid2 :  $  Tenzij bij wettelijk voorschrift anders is bepaald, geschiedt de verzending van berichten die niet tot een of meer geadresseerden zijn gericht, niet uitsluitend elektronisch.  $ Lid3 :  $  Indien een bestuursorgaan een bericht elektronisch verzendt, geschiedt dit op een voldoende betrouwbare en vertrouwelijke manier, gelet op de aard en de inhoud van het bericht en het doel waarvoor het wordt gebruikt.",1.0:c:BWBR0005537&artikel=2%3A14&g=2019-11-14,jci1.3:c:BWBR0005537&hoofdstuk=2&afdeling=2.3&artikel=2:14&z=2019-11-14&g=2019-11-14,01-07-2004
14,/Hoofdstuk2/Afdeling2.3/Artikel2:15," $ Lid1 :  $  Een bericht kan elektronisch naar een bestuursorgaan worden verzonden voor zover het bestuursorgaan kenbaar heeft gemaakt dat deze weg is geopend. Het bestuursorgaan kan nadere eisen stellen aan het gebruik van de elektronische weg.  $ Lid2 :  $  Een bestuursorgaan kan elektronisch verschafte gegevens en bescheiden weigeren voor zover de aanvaarding daarvan tot een onevenredige belasting voor het bestuursorgaan zou leiden.  $ Lid3 :  $  Een bestuursorgaan kan een elektronisch verzonden bericht weigeren voor zover de betrouwbaarheid of vertrouwelijkheid van dit bericht onvoldoende is gewaarborgd, gelet op de aard en de inhoud van het bericht en het doel waarvoor het wordt gebruikt.  $ Lid4 :  $  Het bestuursorgaan deelt een weigering op grond van dit artikel zo spoedig mogelijk aan de afzender mede.",1.0:c:BWBR0005537&artikel=2%3A15&g=2019-11-14,jci1.3:c:BWBR0005537&hoofdstuk=2&afdeling=2.3&artikel=2:15&z=2019-11-14&g=2019-11-14,01-07-2004
15,/Hoofdstuk2/Afdeling2.3/Artikel2:16," $ Lid1 :  $  Aan het vereiste van ondertekening is voldaan door een elektronische handtekening, indien de methode die daarbij voor ondertekening is gebruikt, voldoende betrouwbaar is, gelet op de aard en inhoud van het elektronische bericht en het doel waarvoor het is gebruikt.  $ Lid2 :  $  Indien de veiligheid en de betrouwbaarheid van het elektronische bericht en het doel waarvoor het wordt gebruikt dit noodzakelijk maken, kan bij wettelijk voorschrift het gebruik worden voorgeschreven van een bepaald type elektronische handtekening als bedoeld in artikel 3, onderdeel 10, van Verordening (EU) nr. 910/2014 van het Europees Parlement en de Raad van 23 juli 2014 (PbEU 2014, L257). Daarbij kunnen aanvullende eisen worden gesteld, tenzij het gaat om een geavanceerde elektronische handtekening als bedoeld in artikel 3, onderdeel 11 of een gekwalificeerde elektronische handtekening als bedoeld in artikel 3, onderdeel 12 van die verordening.",1.0:c:BWBR0005537&artikel=2%3A16&g=2019-11-14,jci1.3:c:BWBR0005537&hoofdstuk=2&afdeling=2.3&artikel=2:16&z=2019-11-14&g=2019-11-14,10-03-2017
16,/Hoofdstuk2/Afdeling2.3/Artikel2:17," $ Lid1 :  $  Als tijdstip waarop een bericht door een bestuursorgaan elektronisch is verzonden, geldt het tijdstip waarop het bericht een systeem voor gegevensverwerking bereikt waarvoor het bestuursorgaan geen verantwoordelijkheid draagt of, indien het bestuursorgaan en de geadresseerde gebruik maken van hetzelfde systeem voor gegevensverwerking, het tijdstip waarop het bericht toegankelijk wordt voor de geadresseerde.  $ Lid2 :  $  Als tijdstip waarop een bericht door een bestuursorgaan elektronisch is ontvangen, geldt het tijdstip waarop het bericht zijn systeem voor gegevensverwerking heeft bereikt.",1.0:c:BWBR0005537&artikel=2%3A17&g=2019-11-14,jci1.3:c:BWBR0005537&hoofdstuk=2&afdeling=2.3&artikel=2:17&z=2019-11-14&g=2019-11-14,01-07-2010
17,/Hoofdstuk3/Afdeling3.1/Artikel3:1," $ Lid1 :  $  Op besluiten, inhoudende algemeen verbindende voorschriften:  $ Onderdeela :  $  is  slechts van toepassing, voor zover de aard van de besluiten zich daartegen niet verzet;afdeling 3.2 is  slechts van toepassing, voor zover de aard van de besluiten zich daartegen niet verzet;  $ Onderdeelb :  $  zijn de  en  niet van toepassing.afdelingen 3.6 zijn de  en  niet van toepassing.  $ Lid2 :  $  Op andere handelingen van bestuursorganen dan besluiten zijn de  van overeenkomstige toepassing, voor zover de aard van de handelingen zich daartegen niet verzet.afdelingen 3.2 tot en met 3.4 Op andere handelingen van bestuursorganen dan besluiten zijn de  van overeenkomstige toepassing, voor zover de aard van de handelingen zich daartegen niet verzet.",1.0:c:BWBR0005537&artikel=3%3A1&g=2019-11-14,jci1.3:c:BWBR0005537&hoofdstuk=3&afdeling=3.1&artikel=3:1&z=2019-11-14&g=2019-11-14,01-02-2006
18,/Hoofdstuk3/Afdeling3.2/Artikel3:2,Bij de voorbereiding van een besluit vergaart het bestuursorgaan de nodige kennis omtrent de relevante feiten en de af te wegen belangen.,1.0:c:BWBR0005537&artikel=3%3A2&g=2019-11-14,jci1.3:c:BWBR0005537&hoofdstuk=3&afdeling=3.2&artikel=3:2&z=2019-11-14&g=2019-11-14,01-01-1994
19,/Hoofdstuk3/Afdeling3.2/Artikel3:3,Het bestuursorgaan gebruikt de bevoegdheid tot het nemen van een besluit niet voor een ander doel dan waarvoor die bevoegdheid is verleend.,1.0:c:BWBR0005537&artikel=3%3A3&g=2019-11-14,jci1.3:c:BWBR0005537&hoofdstuk=3&afdeling=3.2&artikel=3:3&z=2019-11-14&g=2019-11-14,01-01-1994
20,/Hoofdstuk3/Afdeling3.2/Artikel3:4," $ Lid1 :  $  Het bestuursorgaan weegt de rechtstreeks bij het besluit betrokken belangen af, voor zover niet uit een wettelijk voorschrift of uit de aard van de uit te oefenen bevoegdheid een beperking voortvloeit.  $ Lid2 :  $  De voor een of meer belanghebbenden nadelige gevolgen van een besluit mogen niet onevenredig zijn in verhouding tot de met het besluit te dienen doelen.",1.0:c:BWBR0005537&artikel=3%3A4&g=2019-11-14,jci1.3:c:BWBR0005537&hoofdstuk=3&afdeling=3.2&artikel=3:4&z=2019-11-14&g=2019-11-14,01-01-1994
21,/Hoofdstuk3/Afdeling3.3/Artikel3:5," $ Lid1 :  $  In deze afdeling wordt verstaan onder adviseur: een persoon of college, bij of krachtens wettelijk voorschrift belast met het adviseren inzake door een bestuursorgaan te nemen besluiten en niet werkzaam onder verantwoordelijkheid van dat bestuursorgaan.  $ Lid2 :  $  Deze afdeling is niet van toepassing op het horen van de Raad van State.",1.0:c:BWBR0005537&artikel=3%3A5&g=2019-11-14,jci1.3:c:BWBR0005537&hoofdstuk=3&afdeling=3.3&artikel=3:5&z=2019-11-14&g=2019-11-14,26-07-1995
22,/Hoofdstuk3/Afdeling3.3/Artikel3:6," $ Lid1 :  $  Indien aan de adviseur niet reeds bij wettelijk voorschrift een termijn is gesteld, kan het bestuursorgaan aangeven binnen welke termijn een advies wordt verwacht. Deze termijn mag niet zodanig kort zijn, dat de adviseur zijn taak niet naar behoren kan vervullen.  $ Lid2 :  $  Indien het advies niet tijdig wordt uitgebracht staat het enkele ontbreken daarvan niet in de weg aan het nemen van het besluit.",1.0:c:BWBR0005537&artikel=3%3A6&g=2019-11-14,jci1.3:c:BWBR0005537&hoofdstuk=3&afdeling=3.3&artikel=3:6&z=2019-11-14&g=2019-11-14,26-07-1995
23,/Hoofdstuk3/Afdeling3.3/Artikel3:7," $ Lid1 :  $  Het bestuursorgaan waaraan advies wordt uitgebracht, stelt aan de adviseur, al dan niet op verzoek, de gegevens ter beschikking die nodig zijn voor een goede vervulling van diens taak.  $ Lid2 :  $  is van overeenkomstige toepassing.Artikel 10 van de Wet openbaarheid van bestuur",1.0:c:BWBR0005537&artikel=3%3A7&g=2019-11-14,jci1.3:c:BWBR0005537&hoofdstuk=3&afdeling=3.3&artikel=3:7&z=2019-11-14&g=2019-11-14,01-01-1994
24,/Hoofdstuk3/Afdeling3.3/Artikel3:8,In of bij het besluit wordt de adviseur vermeld die advies heeft uitgebracht.,1.0:c:BWBR0005537&artikel=3%3A8&g=2019-11-14,jci1.3:c:BWBR0005537&hoofdstuk=3&afdeling=3.3&artikel=3:8&z=2019-11-14&g=2019-11-14,01-01-1994
25,/Hoofdstuk3/Afdeling3.3/Artikel3:9,"Indien een besluit berust op een onderzoek naar feiten en gedragingen dat door een adviseur is verricht, dient het bestuursorgaan zich ervan te vergewissen dat dit onderzoek op zorgvuldige wijze heeft plaatsgevonden.",1.0:c:BWBR0005537&artikel=3%3A9&g=2019-11-14,jci1.3:c:BWBR0005537&hoofdstuk=3&afdeling=3.3&artikel=3:9&z=2019-11-14&g=2019-11-14,01-01-1994
26,/Hoofdstuk3/Afdeling3.3/Artikel3:9a,Deze afdeling is van overeenkomstige toepassing op voorstellen van wet.,1.0:c:BWBR0005537&artikel=3%3A9a&g=2019-11-14,jci1.3:c:BWBR0005537&hoofdstuk=3&afdeling=3.3&artikel=3:9a&z=2019-11-14&g=2019-11-14,26-07-1995
27,/Hoofdstuk3/Afdeling3.4/Artikel3:10," $ Lid1 :  $  Deze afdeling is van toepassing op de voorbereiding van besluiten indien dat bij wettelijk voorschrift of bij besluit van het bestuursorgaan is bepaald.  $ Lid2 :  $  Tenzij bij wettelijk voorschrift of bij besluit van het bestuursorgaan anders is bepaald, is deze afdeling niet van toepassing op de voorbereiding van een besluit inhoudende de afwijzing van een aanvraag tot intrekking of wijziging van een besluit.  $ Lid3 :  $  is mede van toepassing op andere besluiten dan beschikkingen, indien deze op aanvraag worden genomen en voorbereid overeenkomstig deze afdeling.Afdeling 4.1.1 is mede van toepassing op andere besluiten dan beschikkingen, indien deze op aanvraag worden genomen en voorbereid overeenkomstig deze afdeling.  $ Lid4 :  $  Indien deze afdeling van toepassing is op de voorbereiding van een besluit is . niet van toepassing.paragraaf 4.1.3.3 Indien deze afdeling van toepassing is op de voorbereiding van een besluit is . niet van toepassing.",1.0:c:BWBR0005537&artikel=3%3A10&g=2019-11-14,jci1.3:c:BWBR0005537&hoofdstuk=3&afdeling=3.4&artikel=3:10&z=2019-11-14&g=2019-11-14,01-01-2012
28,/Hoofdstuk3/Afdeling3.4/Artikel3:11," $ Lid1 :  $  Het bestuursorgaan legt het ontwerp van het te nemen besluit, met de daarop betrekking hebbende stukken die redelijkerwijs nodig zijn voor een beoordeling van het ontwerp, ter inzage.  $ Lid2 :  $  is van overeenkomstige toepassing. Indien op grond daarvan bepaalde stukken niet ter inzage worden gelegd, wordt daarvan mededeling gedaan.Artikel 10 van de Wet openbaarheid van bestuur  $ Lid3 :  $  Tegen vergoeding van ten hoogste de kosten verstrekt het bestuursorgaan afschrift van de ter inzage gelegde stukken.  $ Lid4 :  $  De stukken liggen ter inzage gedurende de in , bedoelde termijn.artikel 3:16, eerste lid De stukken liggen ter inzage gedurende de in , bedoelde termijn.",1.0:c:BWBR0005537&artikel=3%3A11&g=2019-11-14,jci1.3:c:BWBR0005537&hoofdstuk=3&afdeling=3.4&artikel=3:11&z=2019-11-14&g=2019-11-14,01-07-2005
29,/Hoofdstuk3/Afdeling3.4/Artikel3:12," $ Lid1 :  $  Voorafgaand aan de terinzagelegging geeft het bestuursorgaan in een of meer dag-, nieuws-, of huis-aan-huisbladen of op een andere geschikte wijze kennis van het ontwerp. Volstaan kan worden met het vermelden van de zakelijke inhoud.  $ Lid2 :  $  Indien het een besluit van een tot de centrale overheid behorend bestuursorgaan betreft, wordt de kennisgeving in ieder geval in de Staatscourant geplaatst, tenzij bij wettelijk voorschrift anders is bepaald.  $ Lid3 :  $  In de kennisgeving wordt vermeld:  $ Onderdeela :  $  waar en wanneer de stukken ter inzage zullen liggen;  $ Onderdeelb :  $  wie in de gelegenheid worden gesteld om zienswijzen naar voren te brengen;  $ Onderdeelc :  $  op welke wijze dit kan geschieden;  $ Onderdeeld :  $  indien toepassing is gegeven aan : de termijn waarbinnen het besluit zal worden genomen.artikel 3:18, tweede lid indien toepassing is gegeven aan : de termijn waarbinnen het besluit zal worden genomen.",1.0:c:BWBR0005537&artikel=3%3A12&g=2019-11-14,jci1.3:c:BWBR0005537&hoofdstuk=3&afdeling=3.4&artikel=3:12&z=2019-11-14&g=2019-11-14,01-07-2005
30,/Hoofdstuk3/Afdeling3.4/Artikel3:13," $ Lid1 :  $  Indien het besluit tot een of meer belanghebbenden zal zijn gericht, zendt het bestuursorgaan voorafgaand aan de terinzagelegging het ontwerp toe aan hen, onder wie begrepen de aanvrager.  $ Lid2 :  $  , is van overeenkomstige toepassing.Artikel 3:12, derde lid , is van overeenkomstige toepassing.",1.0:c:BWBR0005537&artikel=3%3A13&g=2019-11-14,jci1.3:c:BWBR0005537&hoofdstuk=3&afdeling=3.4&artikel=3:13&z=2019-11-14&g=2019-11-14,01-07-2005
31,/Hoofdstuk3/Afdeling3.4/Artikel3:14," $ Lid1 :  $  Het bestuursorgaan vult de ter inzage gelegde stukken aan met nieuwe relevante stukken en gegevens.  $ Lid2 :  $  , is van toepassing.Artikel 3:11, tweede tot en met vierde lid , is van toepassing.",1.0:c:BWBR0005537&artikel=3%3A14&g=2019-11-14,jci1.3:c:BWBR0005537&hoofdstuk=3&afdeling=3.4&artikel=3:14&z=2019-11-14&g=2019-11-14,01-07-2005
32,/Hoofdstuk3/Afdeling3.4/Artikel3:15," $ Lid1 :  $  Belanghebbenden kunnen bij het bestuursorgaan naar keuze schriftelijk of mondeling hun zienswijze over het ontwerp naar voren brengen.  $ Lid2 :  $  Bij wettelijk voorschrift of door het bestuursorgaan kan worden bepaald dat ook aan anderen de gelegenheid moet worden geboden hun zienswijze naar voren te brengen.  $ Lid3 :  $  Indien het een besluit op aanvraag betreft, stelt het bestuursorgaan de aanvrager zo nodig in de gelegenheid te reageren op de naar voren gebrachte zienswijzen.  $ Lid4 :  $  Indien het een besluit tot wijziging of intrekking van een besluit betreft, stelt het bestuursorgaan degene tot wie het te wijzigen of in te trekken besluit is gericht zo nodig in de gelegenheid te reageren op de naar voren gebrachte zienswijzen.",1.0:c:BWBR0005537&artikel=3%3A15&g=2019-11-14,jci1.3:c:BWBR0005537&hoofdstuk=3&afdeling=3.4&artikel=3:15&z=2019-11-14&g=2019-11-14,01-07-2005
33,/Hoofdstuk3/Afdeling3.4/Artikel3:16," $ Lid1 :  $  De termijn voor het naar voren brengen van zienswijzen en het uitbrengen van adviezen als bedoeld in , bedraagt zes weken, tenzij bij wettelijk voorschrift een langere termijn is bepaald.afdeling 3.3 De termijn voor het naar voren brengen van zienswijzen en het uitbrengen van adviezen als bedoeld in , bedraagt zes weken, tenzij bij wettelijk voorschrift een langere termijn is bepaald.  $ Lid2 :  $  De termijn vangt aan met ingang van de dag waarop het ontwerp ter inzage is gelegd.  $ Lid3 :  $  Op schriftelijk naar voren gebrachte zienswijzen zijn de ,  en  van overeenkomstige toepassing.artikelen 6:9 Op schriftelijk naar voren gebrachte zienswijzen zijn de ,  en  van overeenkomstige toepassing.",1.0:c:BWBR0005537&artikel=3%3A16&g=2019-11-14,jci1.3:c:BWBR0005537&hoofdstuk=3&afdeling=3.4&artikel=3:16&z=2019-11-14&g=2019-11-14,01-01-2013
34,/Hoofdstuk3/Afdeling3.4/Artikel3:17,"Van hetgeen overeenkomstig  mondeling naar voren is gebracht, wordt een verslag gemaakt.artikel 3:15",1.0:c:BWBR0005537&artikel=3%3A17&g=2019-11-14,jci1.3:c:BWBR0005537&hoofdstuk=3&afdeling=3.4&artikel=3:17&z=2019-11-14&g=2019-11-14,01-07-2005
35,/Hoofdstuk3/Afdeling3.4/Artikel3:18," $ Lid1 :  $  Indien het een besluit op aanvraag betreft, neemt het bestuursorgaan het besluit zo spoedig mogelijk, doch uiterlijk zes maanden na ontvangst van de aanvraag.  $ Lid2 :  $  Indien de aanvraag een zeer ingewikkeld of omstreden onderwerp betreft, kan het bestuursorgaan, alvorens een ontwerp ter inzage te leggen, binnen acht weken na ontvangst van de aanvraag de in het eerste lid bedoelde termijn met een redelijke termijn verlengen. Voordat het bestuursorgaan een besluit tot verlenging neemt, stelt het de aanvrager in de gelegenheid zijn zienswijze daarover naar voren te brengen.  $ Lid3 :  $  In afwijking van het eerste lid neemt het bestuursorgaan het besluit uiterlijk twaalf weken na de terinzagelegging van het ontwerp, indien het een besluit betreft:  $ Onderdeela :  $  inzake intrekking van een besluit;  $ Onderdeelb :  $  inzake wijziging van een besluit en de aanvraag is gedaan door een ander dan degene tot wie het te wijzigen besluit is gericht.  $ Lid4 :  $  Indien geen zienswijzen naar voren zijn gebracht, doet het bestuursorgaan daarvan zo spoedig mogelijk nadat de termijn voor het naar voren brengen van zienswijzen is verstreken, mededeling op de wijze, bedoeld in . In afwijking van het eerste of derde lid neemt het bestuursorgaan het besluit in dat geval binnen vier weken nadat de termijn voor het naar voren brengen van zienswijzen is verstreken.artikel 3:12, eerste en tweede lid Indien geen zienswijzen naar voren zijn gebracht, doet het bestuursorgaan daarvan zo spoedig mogelijk nadat de termijn voor het naar voren brengen van zienswijzen is verstreken, mededeling op de wijze, bedoeld in . In afwijking van het eerste of derde lid neemt het bestuursorgaan het besluit in dat geval binnen vier weken nadat de termijn voor het naar voren brengen van zienswijzen is verstreken.",1.0:c:BWBR0005537&artikel=3%3A18&g=2019-11-14,jci1.3:c:BWBR0005537&hoofdstuk=3&afdeling=3.4&artikel=3:18&z=2019-11-14&g=2019-11-14,01-07-2005
36,/Hoofdstuk3/Afdeling3.5/Paragraaf3.5.1/Artikel3:19,Deze afdeling is van toepassing op besluiten die nodig zijn om een bepaalde activiteit te mogen verrichten en op besluiten die strekken tot het vaststellen van een financile aanspraak met het oog op die activiteit.,1.0:c:BWBR0005537&artikel=3%3A19&g=2019-11-14,jci1.3:c:BWBR0005537&hoofdstuk=3&afdeling=3.5&paragraaf=3.5.1&artikel=3:19&z=2019-11-14&g=2019-11-14,01-07-2008
37,/Hoofdstuk3/Afdeling3.5/Paragraaf3.5.2/Artikel3:20," $ Lid1 :  $  Het bestuursorgaan bevordert dat een aanvrager in kennis wordt gesteld van andere op aanvraag te nemen besluiten waarvan het bestuursorgaan redelijkerwijs kan aannemen dat deze nodig zijn voor de door de aanvrager te verrichten activiteit.  $ Lid2 :  $  Bij de kennisgeving wordt per besluit in ieder geval vermeld:  $ Onderdeela :  $  naam en adres van het bestuursorgaan, bevoegd tot het nemen van het besluit;  $ Onderdeelb :  $  krachtens welk wettelijk voorschrift het besluit wordt genomen.",1.0:c:BWBR0005537&artikel=3%3A20&g=2019-11-14,jci1.3:c:BWBR0005537&hoofdstuk=3&afdeling=3.5&paragraaf=3.5.2&artikel=3:20&z=2019-11-14&g=2019-11-14,01-07-2008
38,/Hoofdstuk3/Afdeling3.5/Paragraaf3.5.3/Artikel3:21," $ Lid1 :  $  Deze paragraaf is van toepassing op besluiten ten aanzien waarvan dit is bepaald:  $ Onderdeela :  $  bij wettelijk voorschrift, of  $ Onderdeelb :  $  bij besluit van de tot het nemen van die besluiten bevoegde bestuursorganen.  $ Lid2 :  $  Deze paragraaf is niet van toepassing op besluiten als bedoeld in , of ten aanzien waarvan bij of krachtens wettelijk voorschrift een periode is vastgesteld, na afloop waarvan wordt beslist op aanvragen die in die periode zijn ingediend.artikel 4:21, tweede lid Deze paragraaf is niet van toepassing op besluiten als bedoeld in , of ten aanzien waarvan bij of krachtens wettelijk voorschrift een periode is vastgesteld, na afloop waarvan wordt beslist op aanvragen die in die periode zijn ingediend.",1.0:c:BWBR0005537&artikel=3%3A21&g=2019-11-14,jci1.3:c:BWBR0005537&hoofdstuk=3&afdeling=3.5&paragraaf=3.5.3&artikel=3:21&z=2019-11-14&g=2019-11-14,01-07-2008
39,/Hoofdstuk3/Afdeling3.5/Paragraaf3.5.3/Artikel3:22,"Bij of krachtens het in , bedoelde wettelijk voorschrift of bij het in , bedoelde besluit wordt een van de betrokken bestuursorganen aangewezen als cordinerend bestuursorgaan.artikel 3:21, eerste lid, onderdeel a",1.0:c:BWBR0005537&artikel=3%3A22&g=2019-11-14,jci1.3:c:BWBR0005537&hoofdstuk=3&afdeling=3.5&paragraaf=3.5.3&artikel=3:22&z=2019-11-14&g=2019-11-14,01-07-2008
40,/Hoofdstuk3/Afdeling3.5/Paragraaf3.5.3/Artikel3:23," $ Lid1 :  $  Het cordinerend bestuursorgaan bevordert een doelmatige en samenhangende besluitvorming, waarbij de bestuursorganen bij de beoordeling van de aanvragen in ieder geval rekening houden met de onderlinge samenhang daartussen en tevens letten op de samenhang tussen de te nemen besluiten.  $ Lid2 :  $  De andere betrokken bestuursorganen verlenen de medewerking die voor het welslagen van een doelmatige en samenhangende besluitvorming nodig is.",1.0:c:BWBR0005537&artikel=3%3A23&g=2019-11-14,jci1.3:c:BWBR0005537&hoofdstuk=3&afdeling=3.5&paragraaf=3.5.3&artikel=3:23&z=2019-11-14&g=2019-11-14,01-07-2008
41,/Hoofdstuk3/Afdeling3.5/Paragraaf3.5.3/Artikel3:24," $ Lid1 :  $  De besluiten worden zoveel mogelijk gelijktijdig aangevraagd, met dien verstande dat de laatste aanvraag niet later wordt ingediend dan zes weken na ontvangst van de eerste aanvraag.  $ Lid2 :  $  De aanvragen worden ingediend bij het cordinerend bestuursorgaan. Het cordinerend bestuursorgaan zendt terstond na ontvangst van de aanvragen een afschrift daarvan aan de bevoegde bestuursorganen.  $ Lid3 :  $  Indien een aanvraag voor een van de besluiten ontbreekt, stelt het cordinerend bestuursorgaan de aanvrager in de gelegenheid de ontbrekende aanvraag binnen een door het cordinerend bestuursorgaan te bepalen termijn in te dienen. Indien de ontbrekende aanvraag niet tijdig wordt ingediend, is het cordinerend bestuursorgaan bevoegd om deze paragraaf ten aanzien van bepaalde besluiten buiten toepassing te laten. In dat geval wordt voor de toepassing van bij wettelijk voorschrift geregelde termijnen het tijdstip waarop tot het buiten toepassing laten wordt beslist, gelijkgesteld met het tijdstip van ontvangst van de aanvraag.  $ Lid4 :  $  Bij het in , bedoelde wettelijk voorschrift kan worden bepaald dat de aanvraag voor een besluit niet wordt behandeld indien niet tevens de aanvraag voor een ander besluit is ingediend.artikel 3:21, eerste lid, onderdeel a Bij het in , bedoelde wettelijk voorschrift kan worden bepaald dat de aanvraag voor een besluit niet wordt behandeld indien niet tevens de aanvraag voor een ander besluit is ingediend.",1.0:c:BWBR0005537&artikel=3%3A24&g=2019-11-14,jci1.3:c:BWBR0005537&hoofdstuk=3&afdeling=3.5&paragraaf=3.5.3&artikel=3:24&z=2019-11-14&g=2019-11-14,01-07-2008
42,/Hoofdstuk3/Afdeling3.5/Paragraaf3.5.3/Artikel3:25,"Onverminderd , vangt de termijn voor het nemen van de besluiten aan met ingang van de dag waarop de laatste aanvraag is ontvangen.artikel 3:24, derde en vierde lid",1.0:c:BWBR0005537&artikel=3%3A25&g=2019-11-14,jci1.3:c:BWBR0005537&hoofdstuk=3&afdeling=3.5&paragraaf=3.5.3&artikel=3:25&z=2019-11-14&g=2019-11-14,01-07-2008
43,/Hoofdstuk3/Afdeling3.5/Paragraaf3.5.3/Artikel3:26," $ Lid1 :  $  Indien op de voorbereiding van een van de besluiten  van toepassing is, is die afdeling van toepassing op de voorbereiding van alle besluiten, met inachtneming van het volgende:afdeling 3.4 Indien op de voorbereiding van een van de besluiten  van toepassing is, is die afdeling van toepassing op de voorbereiding van alle besluiten, met inachtneming van het volgende:  $ Onderdeela :  $  de ingevolge de  en , vereiste terinzagelegging geschiedt in ieder geval ten kantore van het cordinerend bestuursorgaan;artikelen 3:11 de ingevolge de  en , vereiste terinzagelegging geschiedt in ieder geval ten kantore van het cordinerend bestuursorgaan;  $ Onderdeelb :  $  het cordinerend bestuursorgaan draagt er zorg voor dat de gelegenheid tot het mondeling naar voren brengen van zienswijzen wordt gegeven met betrekking tot de ontwerpen van alle besluiten gezamenlijk;  $ Onderdeelc :  $  zienswijzen kunnen in ieder geval bij het cordinerend bestuursorgaan naar voren worden gebracht;  $ Onderdeeld :  $  indien over het ontwerp van een van de besluiten zienswijzen naar voren kunnen worden gebracht door een ieder, geldt dit eveneens met betrekking tot de ontwerpen van de andere besluiten;  $ Onderdeele :  $  de ingevolge die afdeling en  vereiste mededelingen, kennisgevingen en toezendingen geschieden door het cordinerend bestuursorgaan;afdeling 3.6 de ingevolge die afdeling en  vereiste mededelingen, kennisgevingen en toezendingen geschieden door het cordinerend bestuursorgaan;  $ Onderdeelf :  $  alle besluiten worden genomen binnen de termijn die geldt voor het besluit met de langste beslistermijn;  $ Onderdeelg :  $  de dag van terinzagelegging bij het cordinerend bestuursorgaan is bepalend voor de aanvang van de beroepstermijn ingevolge .artikel 6:8, vierde lid de dag van terinzagelegging bij het cordinerend bestuursorgaan is bepalend voor de aanvang van de beroepstermijn ingevolge .  $ Lid2 :  $  Indien  niet van toepassing is, geschiedt de voorbereiding met toepassing of overeenkomstige toepassing van  en de onderdelen b tot en met f van het eerste lid van dit artikel.afdeling 3.4 Indien  niet van toepassing is, geschiedt de voorbereiding met toepassing of overeenkomstige toepassing van  en de onderdelen b tot en met f van het eerste lid van dit artikel.",1.0:c:BWBR0005537&artikel=3%3A26&g=2019-11-14,jci1.3:c:BWBR0005537&hoofdstuk=3&afdeling=3.5&paragraaf=3.5.3&artikel=3:26&z=2019-11-14&g=2019-11-14,01-07-2008
44,/Hoofdstuk3/Afdeling3.5/Paragraaf3.5.3/Artikel3:27, $ Lid1 :  $  De bevoegde bestuursorganen zenden de door hen genomen besluiten toe aan het cordinerend bestuursorgaan.  $ Lid2 :  $  Het cordinerend bestuursorgaan maakt de besluiten gelijktijdig bekend en legt deze gelijktijdig ter inzage.,1.0:c:BWBR0005537&artikel=3%3A27&g=2019-11-14,jci1.3:c:BWBR0005537&hoofdstuk=3&afdeling=3.5&paragraaf=3.5.3&artikel=3:27&z=2019-11-14&g=2019-11-14,01-07-2008
45,/Hoofdstuk3/Afdeling3.5/Paragraaf3.5.3/Artikel3:28," $ Lid1 :  $  Indien tegen een van de besluiten bezwaar kan worden gemaakt of administratief beroep kan worden ingesteld, geschiedt dit door het indienen van het bezwaar- of beroepschrift bij het cordinerend bestuursorgaan. Het cordinerend bestuursorgaan zendt terstond na ontvangst van het bezwaar- of beroepschrift een afschrift daarvan aan het bevoegde bestuursorgaan.  $ Lid2 :  $  De bevoegde bestuursorganen zenden de door hen genomen beslissingen op bezwaar of beroep toe aan het cordinerend bestuursorgaan. Het cordinerend bestuursorgaan maakt de beslissingen gelijktijdig bekend en doet de ingevolge , of , vereiste mededelingen.artikel 7:12, derde lid De bevoegde bestuursorganen zenden de door hen genomen beslissingen op bezwaar of beroep toe aan het cordinerend bestuursorgaan. Het cordinerend bestuursorgaan maakt de beslissingen gelijktijdig bekend en doet de ingevolge , of , vereiste mededelingen.  $ Lid3 :  $  Een beslissing op een verzoek in te stemmen met rechtstreeks beroep bij de bestuursrechter als bedoeld in , wordt genomen door het cordinerend bestuursorgaan. Onverminderd artikel 7:1a, tweede lid, wijst het cordinerend bestuursorgaan het verzoek in ieder geval af, indien tegen een van de andere besluiten een bezwaarschrift is ingediend waarin eenzelfde verzoek ontbreekt.artikel 7:1a, vierde lid Een beslissing op een verzoek in te stemmen met rechtstreeks beroep bij de bestuursrechter als bedoeld in , wordt genomen door het cordinerend bestuursorgaan. Onverminderd artikel 7:1a, tweede lid, wijst het cordinerend bestuursorgaan het verzoek in ieder geval af, indien tegen een van de andere besluiten een bezwaarschrift is ingediend waarin eenzelfde verzoek ontbreekt.",1.0:c:BWBR0005537&artikel=3%3A28&g=2019-11-14,jci1.3:c:BWBR0005537&hoofdstuk=3&afdeling=3.5&paragraaf=3.5.3&artikel=3:28&z=2019-11-14&g=2019-11-14,01-01-2013
46,/Hoofdstuk3/Afdeling3.5/Paragraaf3.5.3/Artikel3:29," $ Lid1 :  $  Indien tegen een of meer van de besluiten beroep kan worden ingesteld bij de rechtbank, staat tegen alle besluiten beroep open bij de rechtbank binnen het rechtsgebied waarvan het cordinerend bestuursorgaan zijn zetel heeft.  $ Lid2 :  $  Indien tegen alle besluiten beroep kan worden ingesteld bij een andere bestuursrechter dan de rechtbank, staat tegen alle besluiten beroep open bij:  $ Onderdeela :  $  de Afdeling bestuursrechtspraak van de Raad van State, indien tegen een of meer van de besluiten bij de Afdeling beroep kan worden ingesteld;  $ Onderdeelb :  $  het College van Beroep voor het bedrijfsleven, indien tegen een of meer van de besluiten beroep kan worden ingesteld bij het College en onderdeel a niet van toepassing is;  $ Onderdeelc :  $  de Centrale Raad van Beroep, indien tegen een of meer van de besluiten beroep kan worden ingesteld bij de Centrale Raad van Beroep en de onderdelen a en b niet van toepassing zijn.  $ Lid3 :  $  Indien tegen de uitspraak van de rechtbank inzake een of meer besluiten hoger beroep kan worden ingesteld bij:  $ Onderdeela :  $  de Afdeling bestuursrechtspraak van de Raad van State, staat inzake alle besluiten hoger beroep open bij de Afdeling;  $ Onderdeelb :  $  het College van Beroep voor het bedrijfsleven en onderdeel a niet van toepassing is, staat inzake alle besluiten hoger beroep open bij het College;  $ Onderdeelc :  $  de Centrale Raad van Beroep en de onderdelen a en b niet van toepassing zijn, staat inzake alle besluiten hoger beroep open bij de Centrale Raad van Beroep.  $ Lid4 :  $  De ingevolge het eerste lid bevoegde rechtbank of de ingevolge het tweede of derde lid bevoegde bestuursrechter kan de behandeling van de beroepen in eerste aanleg dan wel de hoger beroepen verwijzen naar een andere rechtbank onderscheidenlijk een andere bestuursrechter die voor de behandeling ervan meer geschikt wordt geacht. , is van overeenkomstige toepassing.Artikel 8:13, tweede en derde lid De ingevolge het eerste lid bevoegde rechtbank of de ingevolge het tweede of derde lid bevoegde bestuursrechter kan de behandeling van de beroepen in eerste aanleg dan wel de hoger beroepen verwijzen naar een andere rechtbank onderscheidenlijk een andere bestuursrechter die voor de behandeling ervan meer geschikt wordt geacht. , is van overeenkomstige toepassing.",1.0:c:BWBR0005537&artikel=3%3A29&g=2019-11-14,jci1.3:c:BWBR0005537&hoofdstuk=3&afdeling=3.5&paragraaf=3.5.3&artikel=3:29&z=2019-11-14&g=2019-11-14,01-01-2013
47,/Hoofdstuk3/Afdeling3.5/Paragraaf3.5.3/Artikel3:30,,1.0:c:BWBR0005537&artikel=3%3A30&g=2019-11-14,jci1.3:c:BWBR0005537&hoofdstuk=3&afdeling=3.5&paragraaf=3.5.3&artikel=3:30&z=2019-11-14&g=2019-11-14,01-07-2005
48,/Hoofdstuk3/Afdeling3.5/Paragraaf3.5.3/Artikel3:31,,1.0:c:BWBR0005537&artikel=3%3A31&g=2019-11-14,jci1.3:c:BWBR0005537&hoofdstuk=3&afdeling=3.5&paragraaf=3.5.3&artikel=3:31&z=2019-11-14&g=2019-11-14,01-07-2005
49,/Hoofdstuk3/Afdeling3.5/Paragraaf3.5.3/Artikel3:32,,1.0:c:BWBR0005537&artikel=3%3A32&g=2019-11-14,jci1.3:c:BWBR0005537&hoofdstuk=3&afdeling=3.5&paragraaf=3.5.3&artikel=3:32&z=2019-11-14&g=2019-11-14,01-07-2005
50,/Hoofdstuk3/Afdeling3.5/Paragraaf3.5.3/Artikel3:33,,1.0:c:BWBR0005537&artikel=3%3A33&g=2019-11-14,jci1.3:c:BWBR0005537&hoofdstuk=3&afdeling=3.5&paragraaf=3.5.3&artikel=3:33&z=2019-11-14&g=2019-11-14,01-07-2005
51,/Hoofdstuk3/Afdeling3.6/Artikel3:40,Een besluit treedt niet in werking voordat het is bekendgemaakt.,1.0:c:BWBR0005537&artikel=3%3A40&g=2019-11-14,jci1.3:c:BWBR0005537&hoofdstuk=3&afdeling=3.6&artikel=3:40&z=2019-11-14&g=2019-11-14,01-01-1994
52,/Hoofdstuk3/Afdeling3.6/Artikel3:41," $ Lid1 :  $  De bekendmaking van besluiten die tot een of meer belanghebbenden zijn gericht, geschiedt door toezending of uitreiking aan hen, onder wie begrepen de aanvrager.  $ Lid2 :  $  Indien de bekendmaking van het besluit niet kan geschieden op de wijze als voorzien in het eerste lid, geschiedt zij op een andere geschikte wijze.",1.0:c:BWBR0005537&artikel=3%3A41&g=2019-11-14,jci1.3:c:BWBR0005537&hoofdstuk=3&afdeling=3.6&artikel=3:41&z=2019-11-14&g=2019-11-14,01-01-1998
53,/Hoofdstuk3/Afdeling3.6/Artikel3:42," $ Lid1 :  $  De bekendmaking van besluiten van een tot de centrale overheid behorend bestuursorgaan die niet tot een of meer belanghebbenden zijn gericht, geschiedt door kennisgeving van het besluit of van de zakelijke inhoud ervan in de Staatscourant, tenzij bij wettelijk voorschrift anders is bepaald.  $ Lid2 :  $  De bekendmaking van besluiten van een niet tot de centrale overheid behorend bestuursorgaan die niet tot een of meer belanghebbenden zijn gericht, geschiedt door kennisgeving van het besluit of van de zakelijke inhoud ervan in een van overheidswege uitgegeven blad of een dag-, nieuws- of huis-aan-huisblad, dan wel op een andere geschikte wijze. Elektronische bekendmaking vindt uitsluitend plaats in een van overheidswege uitgegeven blad, tenzij bij wettelijk voorschrift anders is bepaald.  $ Lid3 :  $  Indien alleen van de zakelijke inhoud wordt kennisgegeven, wordt het besluit tegelijkertijd ter inzage gelegd. In de kennisgeving wordt vermeld waar en wanneer het besluit ter inzage ligt.",1.0:c:BWBR0005537&artikel=3%3A42&g=2019-11-14,jci1.3:c:BWBR0005537&hoofdstuk=3&afdeling=3.6&artikel=3:42&z=2019-11-14&g=2019-11-14,01-07-2009
54,/Hoofdstuk3/Afdeling3.6/Artikel3:43, $ Lid1 :  $  Tegelijkertijd met of zo spoedig mogelijk na de bekendmaking wordt van het besluit mededeling gedaan aan degenen die bij de voorbereiding ervan hun zienswijze naar voren hebben gebracht. Aan een adviseur als bedoeld in  wordt in ieder geval mededeling gedaan indien van het advies wordt afgeweken.artikel 3:5 Tegelijkertijd met of zo spoedig mogelijk na de bekendmaking wordt van het besluit mededeling gedaan aan degenen die bij de voorbereiding ervan hun zienswijze naar voren hebben gebracht. Aan een adviseur als bedoeld in  wordt in ieder geval mededeling gedaan indien van het advies wordt afgeweken.  $ Lid2 :  $  Bij de mededeling van een besluit wordt tevens vermeld wanneer en hoe de bekendmaking ervan heeft plaatsgevonden.,1.0:c:BWBR0005537&artikel=3%3A43&g=2019-11-14,jci1.3:c:BWBR0005537&hoofdstuk=3&afdeling=3.6&artikel=3:43&z=2019-11-14&g=2019-11-14,01-07-2005
55,/Hoofdstuk3/Afdeling3.6/Artikel3:44," $ Lid1 :  $  Indien bij de voorbereiding van het besluit toepassing is gegeven aan , geschiedt de mededeling, bedoeld in :afdeling 3.4 Indien bij de voorbereiding van het besluit toepassing is gegeven aan , geschiedt de mededeling, bedoeld in :  $ Onderdeela :  $  met overeenkomstige toepassing van de  en , met dien verstande dat de stukken ter inzage liggen totdat de beroepstermijn is verstreken, enartikelen 3:11 met overeenkomstige toepassing van de  en , met dien verstande dat de stukken ter inzage liggen totdat de beroepstermijn is verstreken, en  $ Onderdeelb :  $  door toezending van een exemplaar van het besluit aan degenen die over het ontwerp van het besluit zienswijzen naar voren hebben gebracht.  $ Lid2 :  $  In afwijking van het eerste lid, onderdeel b, kan het bestuursorgaan:  $ Onderdeela :  $  indien de omvang van het besluit daartoe aanleiding geeft, volstaan met een ieder van de daar bedoelde personen de strekking van het besluit mee te delen;  $ Onderdeelb :  $  indien een zienswijze door meer dan vijf personen naar voren is gebracht bij hetzelfde geschrift, volstaan met toezending van een exemplaar aan de vijf personen wier namen en adressen als eerste in dat geschrift zijn vermeld;  $ Onderdeelc :  $  indien een zienswijze naar voren is gebracht door meer dan vijf personen bij hetzelfde geschrift en de omvang van het besluit daartoe aanleiding geeft, volstaan met het meedelen aan de vijf personen wier namen en adressen als eerste in dat geschrift zijn vermeld, van de strekking van het besluit;  $ Onderdeeld :  $  indien toezending zou moeten geschieden aan meer dan 250 personen, die toezending achterwege laten.",1.0:c:BWBR0005537&artikel=3%3A44&g=2019-11-14,jci1.3:c:BWBR0005537&hoofdstuk=3&afdeling=3.6&artikel=3:44&z=2019-11-14&g=2019-11-14,01-07-2005
56,/Hoofdstuk3/Afdeling3.6/Artikel3:45," $ Lid1 :  $  Indien tegen een besluit bezwaar kan worden gemaakt of beroep kan worden ingesteld, wordt daarvan bij de bekendmaking en bij de mededeling van het besluit melding gemaakt.  $ Lid2 :  $  Hierbij wordt vermeld door wie, binnen welke termijn en bij welk orgaan bezwaar kan worden gemaakt of beroep kan worden ingesteld.",1.0:c:BWBR0005537&artikel=3%3A45&g=2019-11-14,jci1.3:c:BWBR0005537&hoofdstuk=3&afdeling=3.6&artikel=3:45&z=2019-11-14&g=2019-11-14,01-01-1994
57,/Hoofdstuk3/Afdeling3.7/Artikel3:46,Een besluit dient te berusten op een deugdelijke motivering.,1.0:c:BWBR0005537&artikel=3%3A46&g=2019-11-14,jci1.3:c:BWBR0005537&hoofdstuk=3&afdeling=3.7&artikel=3:46&z=2019-11-14&g=2019-11-14,01-01-1998
58,/Hoofdstuk3/Afdeling3.7/Artikel3:47," $ Lid1 :  $  De motivering wordt vermeld bij de bekendmaking van het besluit.  $ Lid2 :  $  Daarbij wordt zo mogelijk vermeld krachtens welk wettelijk voorschrift het besluit wordt genomen.  $ Lid3 :  $  Indien de motivering in verband met de vereiste spoed niet aanstonds bij de bekendmaking van het besluit kan worden vermeld, verstrekt het bestuursorgaan deze binnen een week na de bekendmaking.  $ Lid4 :  $  In dat geval zijn de  van overeenkomstige toepassing.artikelen 3:41 tot en met 3:43 In dat geval zijn de  van overeenkomstige toepassing.",1.0:c:BWBR0005537&artikel=3%3A47&g=2019-11-14,jci1.3:c:BWBR0005537&hoofdstuk=3&afdeling=3.7&artikel=3:47&z=2019-11-14&g=2019-11-14,01-01-1998
59,/Hoofdstuk3/Afdeling3.7/Artikel3:48," $ Lid1 :  $  De vermelding van de motivering kan achterwege blijven indien redelijkerwijs kan worden aangenomen dat daaraan geen behoefte bestaat.  $ Lid2 :  $  Verzoekt een belanghebbende binnen een redelijke termijn om de motivering, dan wordt deze zo spoedig mogelijk verstrekt.",1.0:c:BWBR0005537&artikel=3%3A48&g=2019-11-14,jci1.3:c:BWBR0005537&hoofdstuk=3&afdeling=3.7&artikel=3:48&z=2019-11-14&g=2019-11-14,01-01-1998
60,/Hoofdstuk3/Afdeling3.7/Artikel3:49,"Ter motivering van een besluit of een onderdeel daarvan kan worden volstaan met een verwijzing naar een met het oog daarop uitgebracht advies, indien het advies zelf de motivering bevat en van het advies kennis is of wordt gegeven.",1.0:c:BWBR0005537&artikel=3%3A49&g=2019-11-14,jci1.3:c:BWBR0005537&hoofdstuk=3&afdeling=3.7&artikel=3:49&z=2019-11-14&g=2019-11-14,01-01-1998
61,/Hoofdstuk3/Afdeling3.7/Artikel3:50,"Indien het bestuursorgaan een besluit neemt dat afwijkt van een met het oog daarop krachtens wettelijk voorschrift uitgebracht advies, wordt zulks met de redenen voor de afwijking in de motivering vermeld.",1.0:c:BWBR0005537&artikel=3%3A50&g=2019-11-14,jci1.3:c:BWBR0005537&hoofdstuk=3&afdeling=3.7&artikel=3:50&z=2019-11-14&g=2019-11-14,01-01-1998
62,/Hoofdstuk6/Afdeling6.1/Artikel6:1,De  en  zijn van overeenkomstige toepassing indien is voorzien in de mogelijkheid van bezwaar of beroep tegen andere handelingen van bestuursorganen dan besluiten.hoofdstukken 6,1.0:c:BWBR0005537&artikel=6%3A1&g=2019-11-14,jci1.3:c:BWBR0005537&hoofdstuk=6&afdeling=6.1&artikel=6:1&z=2019-11-14&g=2019-11-14,01-01-1994
63,/Hoofdstuk6/Afdeling6.1/Artikel6:2,"Voor de toepassing van wettelijke voorschriften over bezwaar en beroep worden met een besluit gelijkgesteld:  $ Onderdeela :  $  de schriftelijke weigering een besluit te nemen, en  $ Onderdeelb :  $  het niet tijdig nemen van een besluit.",1.0:c:BWBR0005537&artikel=6%3A2&g=2019-11-14,jci1.3:c:BWBR0005537&hoofdstuk=6&afdeling=6.1&artikel=6:2&z=2019-11-14&g=2019-11-14,01-01-1994
64,/Hoofdstuk6/Afdeling6.1/Artikel6:3,"Een beslissing inzake de procedure ter voorbereiding van een besluit is niet vatbaar voor bezwaar of beroep, tenzij deze beslissing de belanghebbende los van het voor te bereiden besluit rechtstreeks in zijn belang treft.",1.0:c:BWBR0005537&artikel=6%3A3&g=2019-11-14,jci1.3:c:BWBR0005537&hoofdstuk=6&afdeling=6.1&artikel=6:3&z=2019-11-14&g=2019-11-14,01-01-1994
65,/Hoofdstuk6/Afdeling6.2/Artikel6:4, $ Lid1 :  $  Het maken van bezwaar geschiedt door het indienen van een bezwaarschrift bij het bestuursorgaan dat het besluit heeft genomen.  $ Lid2 :  $  Het instellen van administratief beroep geschiedt door het indienen van een beroepschrift bij het beroepsorgaan.  $ Lid3 :  $  Het instellen van beroep bij een bestuursrechter geschiedt door het indienen van een beroepschrift bij die rechter.,1.0:c:BWBR0005537&artikel=6%3A4&g=2019-11-14,jci1.3:c:BWBR0005537&hoofdstuk=6&afdeling=6.2&artikel=6:4&z=2019-11-14&g=2019-11-14,01-01-2013
66,/Hoofdstuk6/Afdeling6.2/Artikel6:5," $ Lid1 :  $  Het bezwaar- of beroepschrift wordt ondertekend en bevat ten minste:  $ Onderdeela :  $  de naam en het adres van de indiener;  $ Onderdeelb :  $  de dagtekening;  $ Onderdeelc :  $  een omschrijving van het besluit waartegen het bezwaar of beroep is gericht;  $ Onderdeeld :  $  de gronden van het bezwaar of beroep.  $ Lid2 :  $  Bij het beroepschrift wordt zo mogelijk een afschrift van het besluit waarop het geschil betrekking heeft, overgelegd.  $ Lid3 :  $  Indien het bezwaar- of beroepschrift in een vreemde taal is gesteld en een vertaling voor een goede behandeling van het bezwaar of beroep noodzakelijk is, dient de indiener zorg te dragen voor een vertaling.",1.0:c:BWBR0005537&artikel=6%3A5&g=2019-11-14,jci1.3:c:BWBR0005537&hoofdstuk=6&afdeling=6.2&artikel=6:5&z=2019-11-14&g=2019-11-14,01-01-1994
67,/Hoofdstuk6/Afdeling6.2/Artikel6:6," $ Onderdeela :  $  niet is voldaan aan  of aan enig ander bij de wet gesteld vereiste voor het in behandeling nemen van het bezwaar of beroep, ofartikel 6:5 niet is voldaan aan  of aan enig ander bij de wet gesteld vereiste voor het in behandeling nemen van het bezwaar of beroep, of  $ Onderdeelb :  $  het bezwaar- of beroepschrift geheel of gedeeltelijk is geweigerd op grond van ,artikel 2:15 het bezwaar- of beroepschrift geheel of gedeeltelijk is geweigerd op grond van ,",1.0:c:BWBR0005537&artikel=6%3A6&g=2019-11-14,jci1.3:c:BWBR0005537&hoofdstuk=6&afdeling=6.2&artikel=6:6&z=2019-11-14&g=2019-11-14,01-07-2004
68,/Hoofdstuk6/Afdeling6.2/Artikel6:7,De termijn voor het indienen van een bezwaar- of beroepschrift bedraagt zes weken.,1.0:c:BWBR0005537&artikel=6%3A7&g=2019-11-14,jci1.3:c:BWBR0005537&hoofdstuk=6&afdeling=6.2&artikel=6:7&z=2019-11-14&g=2019-11-14,01-01-1994
69,/Hoofdstuk6/Afdeling6.2/Artikel6:8," $ Lid1 :  $  De termijn vangt aan met ingang van de dag na die waarop het besluit op de voorgeschreven wijze is bekendgemaakt.  $ Lid2 :  $  De termijn voor het indienen van een bezwaarschrift tegen een besluit waartegen alleen door een of meer bepaalde belanghebbenden administratief beroep kon worden ingesteld, vangt aan met ingang van de dag na die waarop de beroepstermijn ongebruikt is verstreken.  $ Lid3 :  $  De termijn voor het indienen van een beroepschrift tegen een besluit dat aan goedkeuring is onderworpen, vangt aan met ingang van de dag na die waarop het besluit, inhoudende de goedkeuring van dat besluit, op de voorgeschreven wijze is bekendgemaakt.  $ Lid4 :  $  De termijn voor het indienen van een beroepschrift tegen een besluit dat is voorbereid met toepassing van  vangt aan met ingang van de dag na die waarop het besluit overeenkomstig , ter inzage is gelegd.afdeling 3.4 De termijn voor het indienen van een beroepschrift tegen een besluit dat is voorbereid met toepassing van  vangt aan met ingang van de dag na die waarop het besluit overeenkomstig , ter inzage is gelegd.",1.0:c:BWBR0005537&artikel=6%3A8&g=2019-11-14,jci1.3:c:BWBR0005537&hoofdstuk=6&afdeling=6.2&artikel=6:8&z=2019-11-14&g=2019-11-14,01-07-2005
70,/Hoofdstuk6/Afdeling6.2/Artikel6:9," $ Lid1 :  $  Een bezwaar- of beroepschrift is tijdig ingediend indien het voor het einde van de termijn is ontvangen.  $ Lid2 :  $  Bij verzending per post is een bezwaar- of beroepschrift tijdig ingediend indien het voor het einde van de termijn ter post is bezorgd, mits het niet later dan een week na afloop van de termijn is ontvangen.",1.0:c:BWBR0005537&artikel=6%3A9&g=2019-11-14,jci1.3:c:BWBR0005537&hoofdstuk=6&afdeling=6.2&artikel=6:9&z=2019-11-14&g=2019-11-14,01-01-1994
71,/Hoofdstuk6/Afdeling6.2/Artikel6:10," $ Lid1 :  $  Ten aanzien van een voor het begin van de termijn ingediend bezwaar- of beroepschrift blijft niet-ontvankelijkverklaring op grond daarvan achterwege indien het besluit ten tijde van de indiening:  $ Onderdeela :  $  wel reeds tot stand was gekomen, of  $ Onderdeelb :  $  nog niet tot stand was gekomen, maar de indiener redelijkerwijs kon menen dat dit wel reeds het geval was.  $ Lid2 :  $  De behandeling van het bezwaar of beroep kan worden aangehouden tot het begin van de termijn.",1.0:c:BWBR0005537&artikel=6%3A10&g=2019-11-14,jci1.3:c:BWBR0005537&hoofdstuk=6&afdeling=6.2&artikel=6:10&z=2019-11-14&g=2019-11-14,01-01-1994
72,/Hoofdstuk6/Afdeling6.2/Artikel6:11,Ten aanzien van een na afloop van de termijn ingediend bezwaar- of beroepschrift blijft niet-ontvankelijkverklaring op grond daarvan achterwege indien redelijkerwijs niet kan worden geoordeeld dat de indiener in verzuim is geweest.,1.0:c:BWBR0005537&artikel=6%3A11&g=2019-11-14,jci1.3:c:BWBR0005537&hoofdstuk=6&afdeling=6.2&artikel=6:11&z=2019-11-14&g=2019-11-14,01-01-1994
73,/Hoofdstuk6/Afdeling6.2/Artikel6:12," $ Lid1 :  $  Indien het beroep is gericht tegen het niet tijdig nemen van een besluit dan wel het niet tijdig bekendmaken van een van rechtswege verleende beschikking, is het niet aan een termijn gebonden.  $ Lid2 :  $  Het beroepschrift kan worden ingediend zodra:  $ Onderdeela :  $  het bestuursorgaan in gebreke is tijdig een besluit te nemen of een van rechtswege verleende beschikking bekend te maken, en  $ Onderdeelb :  $  twee weken zijn verstreken na de dag waarop belanghebbende het bestuursorgaan schriftelijk heeft medegedeeld dat het in gebreke is.  $ Lid3 :  $  Indien redelijkerwijs niet van de belanghebbende kan worden gevergd dat hij het bestuursorgaan in gebreke stelt, kan het beroepschrift worden ingediend zodra het bestuursorgaan in gebreke is tijdig een besluit te nemen.  $ Lid4 :  $  Het beroep is niet-ontvankelijk indien het beroepschrift onredelijk laat is ingediend.",1.0:c:BWBR0005537&artikel=6%3A12&g=2019-11-14,jci1.3:c:BWBR0005537&hoofdstuk=6&afdeling=6.2&artikel=6:12&z=2019-11-14&g=2019-11-14,28-12-2009
74,/Hoofdstuk6/Afdeling6.2/Artikel6:13,"Geen beroep bij de bestuursrechter kan worden ingesteld door een belanghebbende aan wie redelijkerwijs kan worden verweten dat hij geen zienswijzen als bedoeld in  naar voren heeft gebracht, geen bezwaar heeft gemaakt of geen administratief beroep heeft ingesteld.artikel 3:15",1.0:c:BWBR0005537&artikel=6%3A13&g=2019-11-14,jci1.3:c:BWBR0005537&hoofdstuk=6&afdeling=6.2&artikel=6:13&z=2019-11-14&g=2019-11-14,01-01-2013
75,/Hoofdstuk6/Afdeling6.2/Artikel6:14," $ Lid1 :  $  Het orgaan waarbij het bezwaar- of beroepschrift is ingediend, bevestigt de ontvangst daarvan schriftelijk.  $ Lid2 :  $  Het orgaan waarbij het beroepschrift is ingediend, geeft daarvan zo spoedig mogelijk kennis aan het bestuursorgaan dat het bestreden besluit heeft genomen.",1.0:c:BWBR0005537&artikel=6%3A14&g=2019-11-14,jci1.3:c:BWBR0005537&hoofdstuk=6&afdeling=6.2&artikel=6:14&z=2019-11-14&g=2019-11-14,01-01-1994
76,/Hoofdstuk6/Afdeling6.2/Artikel6:15," $ Lid1 :  $  Indien het bezwaar- of beroepschrift wordt ingediend bij een onbevoegd bestuursorgaan of bij een onbevoegde bestuursrechter, wordt het, onder vermelding van de datum van ontvangst, zo spoedig mogelijk doorgezonden aan het bevoegde orgaan, onder gelijktijdige mededeling hiervan aan de afzender.  $ Lid2 :  $  Het eerste lid is van overeenkomstige toepassing indien in plaats van een bezwaarschrift een beroepschrift is ingediend of omgekeerd.  $ Lid3 :  $  Het tijdstip van indiening bij het onbevoegde orgaan is bepalend voor de vraag of het bezwaar- of beroepschrift tijdig is ingediend, behoudens in geval van kennelijk onredelijk gebruik van procesrecht.",1.0:c:BWBR0005537&artikel=6%3A15&g=2019-11-14,jci1.3:c:BWBR0005537&hoofdstuk=6&afdeling=6.2&artikel=6:15&z=2019-11-14&g=2019-11-14,12-06-2017
77,/Hoofdstuk6/Afdeling6.2/Artikel6:16,"Het bezwaar of beroep schorst niet de werking van het besluit waartegen het is gericht, tenzij bij of krachtens wettelijk voorschrift anders is bepaald.",1.0:c:BWBR0005537&artikel=6%3A16&g=2019-11-14,jci1.3:c:BWBR0005537&hoofdstuk=6&afdeling=6.2&artikel=6:16&z=2019-11-14&g=2019-11-14,01-01-1994
78,/Hoofdstuk6/Afdeling6.2/Artikel6:17,"Indien iemand zich laat vertegenwoordigen, stelt het orgaan dat bevoegd is op het bezwaar of beroep te beslissen, de op de zaak betrekking hebbende stukken in ieder geval ter beschikking aan de gemachtigde.",1.0:c:BWBR0005537&artikel=6%3A17&g=2019-11-14,jci1.3:c:BWBR0005537&hoofdstuk=6&afdeling=6.2&artikel=6:17&z=2019-11-14&g=2019-11-14,12-06-2017
79,/Hoofdstuk6/Afdeling6.2/Artikel6:18,,1.0:c:BWBR0005537&artikel=6%3A18&g=2019-11-14,jci1.3:c:BWBR0005537&hoofdstuk=6&afdeling=6.2&artikel=6:18&z=2019-11-14&g=2019-11-14,01-01-2013
80,/Hoofdstuk6/Afdeling6.2/Artikel6:19," $ Lid1 :  $  Het bezwaar of beroep heeft van rechtswege mede betrekking op een besluit tot intrekking, wijziging of vervanging van het bestreden besluit, tenzij partijen daarbij onvoldoende belang hebben.  $ Lid2 :  $  Het eerste lid geldt ook indien het bezwaar is gemaakt of het beroep is ingesteld nadat het bestuursorgaan het bestreden besluit heeft ingetrokken, gewijzigd of vervangen.  $ Lid3 :  $  Het bestuursorgaan stelt het nieuwe besluit onverwijld ter beschikking aan het orgaan waarbij het beroep aanhangig is.  $ Lid4 :  $  Indien een ander orgaan een bezwaar- of beroepschrift tegen het nieuwe besluit ontvangt, zendt het dit met toepassing van , door.artikel 6:15, eerste en tweede lid Indien een ander orgaan een bezwaar- of beroepschrift tegen het nieuwe besluit ontvangt, zendt het dit met toepassing van , door.  $ Lid5 :  $  De bestuursrechter kan het beroep tegen het nieuwe besluit echter verwijzen naar een ander orgaan, indien behandeling door dit orgaan gewenst is.  $ Lid6 :  $  Intrekking of vervanging van het bestreden besluit staat niet in de weg aan vernietiging van dat besluit indien de indiener van het bezwaar- of beroepschrift daarbij belang heeft.",1.0:c:BWBR0005537&artikel=6%3A19&g=2019-11-14,jci1.3:c:BWBR0005537&hoofdstuk=6&afdeling=6.2&artikel=6:19&z=2019-11-14&g=2019-11-14,12-06-2017
81,/Hoofdstuk6/Afdeling6.2/Artikel6:20," $ Lid1 :  $  Indien het beroep zich richt tegen het niet tijdig nemen van een besluit, blijft het bestuursorgaan verplicht dit besluit te nemen, tenzij de belanghebbende daarbij als gevolg van de beslissing op het beroep geen belang meer heeft.  $ Lid2 :  $  Het bestuursorgaan stelt een besluit als bedoeld in het eerste lid onverwijld ter beschikking aan het orgaan waarbij het beroep aanhangig is.  $ Lid3 :  $  Het beroep tegen het niet tijdig nemen van een besluit heeft mede betrekking op het alsnog genomen besluit, tenzij dit geheel aan het beroep tegemoet komt.  $ Lid4 :  $  De beslissing op het beroep kan echter worden verwezen naar een ander orgaan waarbij bezwaar of beroep tegen het alsnog genomen besluit aanhangig is, dan wel kan of kon worden gemaakt of ingesteld.  $ Lid5 :  $  Het beroep tegen het niet tijdig nemen van een besluit kan alsnog gegrond worden verklaard, indien de indiener van het beroepschrift daarbij belang heeft.",1.0:c:BWBR0005537&artikel=6%3A20&g=2019-11-14,jci1.3:c:BWBR0005537&hoofdstuk=6&afdeling=6.2&artikel=6:20&z=2019-11-14&g=2019-11-14,12-06-2017
82,/Hoofdstuk6/Afdeling6.2/Artikel6:21, $ Lid1 :  $  Het bezwaar of beroep kan schriftelijk worden ingetrokken.  $ Lid2 :  $  Tijdens het horen kan de intrekking ook mondeling geschieden.,1.0:c:BWBR0005537&artikel=6%3A21&g=2019-11-14,jci1.3:c:BWBR0005537&hoofdstuk=6&afdeling=6.2&artikel=6:21&z=2019-11-14&g=2019-11-14,01-01-1994
83,/Hoofdstuk6/Afdeling6.2/Artikel6:22,"Een besluit waartegen bezwaar is gemaakt of beroep is ingesteld, kan, ondanks schending van een geschreven of ongeschreven rechtsregel of algemeen rechtsbeginsel, door het orgaan dat op het bezwaar of beroep beslist in stand worden gelaten indien aannemelijk is dat de belanghebbenden daardoor niet zijn benadeeld.",1.0:c:BWBR0005537&artikel=6%3A22&g=2019-11-14,jci1.3:c:BWBR0005537&hoofdstuk=6&afdeling=6.2&artikel=6:22&z=2019-11-14&g=2019-11-14,01-01-2013
84,/Hoofdstuk6/Afdeling6.2/Artikel6:23," $ Lid1 :  $  Indien beroep kan worden ingesteld tegen de beslissing op het bezwaar of beroep, wordt daarvan bij de bekendmaking van de beslissing melding gemaakt.  $ Lid2 :  $  Hierbij wordt vermeld door wie, binnen welke termijn en bij welk orgaan beroep kan worden ingesteld.",1.0:c:BWBR0005537&artikel=6%3A23&g=2019-11-14,jci1.3:c:BWBR0005537&hoofdstuk=6&afdeling=6.2&artikel=6:23&z=2019-11-14&g=2019-11-14,01-01-1994
85,/Hoofdstuk6/Afdeling6.2/Artikel6:24,"Deze afdeling is met uitzondering van  van overeenkomstige toepassing indien hoger beroep, incidenteel hoger beroep, beroep in cassatie of incidenteel beroep in cassatie kan worden ingesteld.artikel 6:12",1.0:c:BWBR0005537&artikel=6%3A24&g=2019-11-14,jci1.3:c:BWBR0005537&hoofdstuk=6&afdeling=6.2&artikel=6:24&z=2019-11-14&g=2019-11-14,01-01-2013
86,/Hoofdstuk7/Afdeling7.1/Artikel7:1," $ Lid1 :  $  Degene aan wie het recht is toegekend beroep bij een bestuursrechter in te stellen, dient alvorens beroep in te stellen bezwaar te maken, tenzij:  $ Onderdeela :  $  het besluit in bezwaar of in administratief beroep is genomen,  $ Onderdeelb :  $  het besluit aan goedkeuring is onderworpen,  $ Onderdeelc :  $  het besluit een goedkeuring of een weigering daarvan inhoudt,  $ Onderdeeld :  $  het besluit is voorbereid met toepassing van ,afdeling 3.4 het besluit is voorbereid met toepassing van ,  $ Onderdeele :  $  het besluit is genomen op basis van een uitspraak waarin de bestuursrechter met toepassing van , heeft bepaald dat  geheel of gedeeltelijk buiten toepassing blijft,artikel 8:72, vierde lid, onderdeel a het besluit is genomen op basis van een uitspraak waarin de bestuursrechter met toepassing van , heeft bepaald dat  geheel of gedeeltelijk buiten toepassing blijft,  $ Onderdeelf :  $  het beroep zich richt tegen het niet tijdig nemen van een besluit,  $ Onderdeelg :  $  het besluit is genomen op grond van een voorschrift als genoemd in de bij deze wet behorende Regeling rechtstreeks beroep dan wel het besluit anderszins in die regeling is omschreven.  $ Lid2 :  $  Tegen de beslissing op het bezwaar kan beroep worden ingesteld met toepassing van de voorschriften die gelden voor het instellen van beroep tegen het besluit waartegen bezwaar is gemaakt.",1.0:c:BWBR0005537&artikel=7%3A1&g=2019-11-14,jci1.3:c:BWBR0005537&hoofdstuk=7&afdeling=7.1&artikel=7:1&z=2019-11-14&g=2019-11-14,01-01-2013
87,/Hoofdstuk7/Afdeling7.1/Artikel7:1a," $ Lid1 :  $  In het bezwaarschrift kan de indiener het bestuursorgaan verzoeken in te stemmen met rechtstreeks beroep bij de bestuursrechter, zulks in afwijking van .artikel 7:1 In het bezwaarschrift kan de indiener het bestuursorgaan verzoeken in te stemmen met rechtstreeks beroep bij de bestuursrechter, zulks in afwijking van .  $ Lid2 :  $  Het bestuursorgaan wijst het verzoek in ieder geval af, indien tegen het besluit een ander bezwaarschrift is ingediend waarin eenzelfde verzoek ontbreekt, tenzij dat andere bezwaarschrift kennelijk niet-ontvankelijk is.  $ Lid3 :  $  Het bestuursorgaan kan instemmen met het verzoek indien de zaak daarvoor geschikt is.  $ Lid4 :  $  Het bestuursorgaan beslist zo spoedig mogelijk op het verzoek. Een beslissing tot instemming wordt genomen zodra redelijkerwijs kan worden aangenomen dat geen nieuwe bezwaarschriften zullen worden ingediend. De  en  zijn niet van toepassing.artikelen 4:7 Het bestuursorgaan beslist zo spoedig mogelijk op het verzoek. Een beslissing tot instemming wordt genomen zodra redelijkerwijs kan worden aangenomen dat geen nieuwe bezwaarschriften zullen worden ingediend. De  en  zijn niet van toepassing.  $ Lid5 :  $  Indien het bestuursorgaan instemt met het verzoek zendt het het bezwaarschrift, onder vermelding van de datum van ontvangst, onverwijld door aan de bevoegde rechter.  $ Lid6 :  $  Een na de instemming ontvangen bezwaarschrift wordt eveneens onverwijld doorgezonden aan de bevoegde rechter. Indien dit bezwaarschrift geen verzoek als bedoeld in het eerste lid bevat, wordt, in afwijking van , geen griffierecht geheven.artikel 8:41, eerste lid Een na de instemming ontvangen bezwaarschrift wordt eveneens onverwijld doorgezonden aan de bevoegde rechter. Indien dit bezwaarschrift geen verzoek als bedoeld in het eerste lid bevat, wordt, in afwijking van , geen griffierecht geheven.",1.0:c:BWBR0005537&artikel=7%3A1a&g=2019-11-14,jci1.3:c:BWBR0005537&hoofdstuk=7&afdeling=7.1&artikel=7:1a&z=2019-11-14&g=2019-11-14,12-06-2017
88,/Hoofdstuk7/Afdeling7.2/Artikel7:2," $ Lid1 :  $  Voordat een bestuursorgaan op het bezwaar beslist, stelt het belanghebbenden in de gelegenheid te worden gehoord.  $ Lid2 :  $  Het bestuursorgaan stelt daarvan in ieder geval de indiener van het bezwaarschrift op de hoogte alsmede de belanghebbenden die bij de voorbereiding van het besluit hun zienswijze naar voren hebben gebracht.",1.0:c:BWBR0005537&artikel=7%3A2&g=2019-11-14,jci1.3:c:BWBR0005537&hoofdstuk=7&afdeling=7.2&artikel=7:2&z=2019-11-14&g=2019-11-14,01-01-1994
89,/Hoofdstuk7/Afdeling7.2/Artikel7:3,"Van het horen van een belanghebbende kan worden afgezien indien:  $ Onderdeela :  $  het bezwaar kennelijk niet-ontvankelijk is,  $ Onderdeelb :  $  het bezwaar kennelijk ongegrond is,  $ Onderdeelc :  $  de belanghebbende heeft verklaard geen gebruik te willen maken van het recht te worden gehoord,  $ Onderdeeld :  $  de belanghebbende niet binnen een door het bestuursorgaan gestelde redelijke termijn verklaart dat hij gebruik wil maken van het recht te worden gehoord, of  $ Onderdeele :  $  aan het bezwaar volledig tegemoet wordt gekomen en andere belanghebbenden daardoor niet in hun belangen kunnen worden geschaad.",1.0:c:BWBR0005537&artikel=7%3A3&g=2019-11-14,jci1.3:c:BWBR0005537&hoofdstuk=7&afdeling=7.2&artikel=7:3&z=2019-11-14&g=2019-11-14,01-01-2013
90,/Hoofdstuk7/Afdeling7.2/Artikel7:4," $ Lid1 :  $  Tot tien dagen voor het horen kunnen belanghebbenden nadere stukken indienen.  $ Lid2 :  $  Het bestuursorgaan legt het bezwaarschrift en alle verder op de zaak betrekking hebbende stukken voorafgaand aan het horen gedurende ten minste een week voor belanghebbenden ter inzage.  $ Lid3 :  $  Bij de oproeping voor het horen worden belanghebbenden gewezen op het eerste lid en wordt vermeld waar en wanneer de stukken ter inzage zullen liggen.  $ Lid4 :  $  Belanghebbenden kunnen van deze stukken tegen vergoeding van ten hoogste de kosten afschriften verkrijgen.  $ Lid5 :  $  Voor zover de belanghebbenden daarmee instemmen, kan toepassing van het tweede lid achterwege worden gelaten.  $ Lid6 :  $  Het bestuursorgaan kan, al dan niet op verzoek van een belanghebbende, toepassing van het tweede lid voorts achterwege laten, voor zover geheimhouding om gewichtige redenen is geboden. Van de toepassing van deze bepaling wordt mededeling gedaan.  $ Lid7 :  $  Gewichtige redenen zijn in ieder geval niet aanwezig, voor zover ingevolge de  de verplichting bestaat een verzoek om informatie, vervat in deze stukken, in te willigen.Wet openbaarheid van bestuur  $ Lid8 :  $  Indien een gewichtige reden is gelegen in de vrees voor schade aan de lichamelijke of geestelijke gezondheid van een belanghebbende, kan inzage van de desbetreffende stukken worden voorbehouden aan een gemachtigde die hetzij advocaat hetzij arts is.",1.0:c:BWBR0005537&artikel=7%3A4&g=2019-11-14,jci1.3:c:BWBR0005537&hoofdstuk=7&afdeling=7.2&artikel=7:4&z=2019-11-14&g=2019-11-14,01-01-1994
91,/Hoofdstuk7/Afdeling7.2/Artikel7:5," $ Lid1 :  $  Tenzij het horen geschiedt door of mede door het bestuursorgaan zelf dan wel de voorzitter of een lid ervan, geschiedt het horen door:  $ Onderdeela :  $  een persoon die niet bij de voorbereiding van het bestreden besluit betrokken is geweest, of  $ Onderdeelb :  $  meer dan een persoon van wie de meerderheid, onder wie degene die het horen leidt, niet bij de voorbereiding van het besluit betrokken is geweest.  $ Lid2 :  $  Voor zover niet bij wettelijk voorschrift anders is bepaald, besluit het bestuursorgaan of het horen in het openbaar plaatsvindt.",1.0:c:BWBR0005537&artikel=7%3A5&g=2019-11-14,jci1.3:c:BWBR0005537&hoofdstuk=7&afdeling=7.2&artikel=7:5&z=2019-11-14&g=2019-11-14,01-01-1994
92,/Hoofdstuk7/Afdeling7.2/Artikel7:6," $ Lid1 :  $  Belanghebbenden worden in elkaars aanwezigheid gehoord.  $ Lid2 :  $  Ambtshalve of op verzoek kunnen belanghebbenden afzonderlijk worden gehoord, indien aannemelijk is dat gezamenlijk horen een zorgvuldige behandeling zal belemmeren of dat tijdens het horen feiten of omstandigheden bekend zullen worden waarvan geheimhouding om gewichtige redenen is geboden.  $ Lid3 :  $  Wanneer belanghebbenden afzonderlijk zijn gehoord, wordt ieder van hen op de hoogte gesteld van het verhandelde tijdens het horen buiten zijn aanwezigheid.  $ Lid4 :  $  Het bestuursorgaan kan, al dan niet op verzoek van een belanghebbende, toepassing van het derde lid achterwege laten, voor zover geheimhouding om gewichtige redenen is geboden. , is van overeenkomstige toepassing.Artikel 7:4, zesde lid, tweede volzin, zevende en achtste lid Het bestuursorgaan kan, al dan niet op verzoek van een belanghebbende, toepassing van het derde lid achterwege laten, voor zover geheimhouding om gewichtige redenen is geboden. , is van overeenkomstige toepassing.",1.0:c:BWBR0005537&artikel=7%3A6&g=2019-11-14,jci1.3:c:BWBR0005537&hoofdstuk=7&afdeling=7.2&artikel=7:6&z=2019-11-14&g=2019-11-14,01-01-1994
93,/Hoofdstuk7/Afdeling7.2/Artikel7:7,Van het horen wordt een verslag gemaakt.,1.0:c:BWBR0005537&artikel=7%3A7&g=2019-11-14,jci1.3:c:BWBR0005537&hoofdstuk=7&afdeling=7.2&artikel=7:7&z=2019-11-14&g=2019-11-14,01-01-1994
94,/Hoofdstuk7/Afdeling7.2/Artikel7:8,Op verzoek van de belanghebbende kunnen door hem meegebrachte getuigen en deskundigen worden gehoord.,1.0:c:BWBR0005537&artikel=7%3A8&g=2019-11-14,jci1.3:c:BWBR0005537&hoofdstuk=7&afdeling=7.2&artikel=7:8&z=2019-11-14&g=2019-11-14,12-03-2002
95,/Hoofdstuk7/Afdeling7.2/Artikel7:9,"Wanneer na het horen aan het bestuursorgaan feiten of omstandigheden bekend worden die voor de op het bezwaar te nemen beslissing van aanmerkelijk belang kunnen zijn, wordt dit aan belanghebbenden meegedeeld en worden zij in de gelegenheid gesteld daarover te worden gehoord.",1.0:c:BWBR0005537&artikel=7%3A9&g=2019-11-14,jci1.3:c:BWBR0005537&hoofdstuk=7&afdeling=7.2&artikel=7:9&z=2019-11-14&g=2019-11-14,01-01-1994
96,/Hoofdstuk7/Afdeling7.2/Artikel7:10," $ Lid1 :  $  Het bestuursorgaan beslist binnen zes weken of  indien een commissie als bedoeld in  is ingesteld  binnen twaalf weken, gerekend vanaf de dag na die waarop de termijn voor het indienen van het bezwaarschrift is verstreken.artikel 7:13 Het bestuursorgaan beslist binnen zes weken of  indien een commissie als bedoeld in  is ingesteld  binnen twaalf weken, gerekend vanaf de dag na die waarop de termijn voor het indienen van het bezwaarschrift is verstreken.  $ Lid2 :  $  De termijn wordt opgeschort gerekend vanaf de dag na die waarop de indiener is verzocht een verzuim als bedoeld in  te herstellen, tot de dag waarop het verzuim is hersteld of de daarvoor gestelde termijn ongebruikt is verstreken.artikel 6:6 De termijn wordt opgeschort gerekend vanaf de dag na die waarop de indiener is verzocht een verzuim als bedoeld in  te herstellen, tot de dag waarop het verzuim is hersteld of de daarvoor gestelde termijn ongebruikt is verstreken.  $ Lid3 :  $  Het bestuursorgaan kan de beslissing voor ten hoogste zes weken verdagen.  $ Lid4 :  $  Verder uitstel is mogelijk voor zover:  $ Onderdeela :  $  alle belanghebbenden daarmee instemmen,  $ Onderdeelb :  $  de indiener van het bezwaarschrift daarmee instemt en andere belanghebbenden daardoor niet in hun belangen kunnen worden geschaad, of  $ Onderdeelc :  $  dit nodig is in verband met de naleving van wettelijke procedurevoorschriften.  $ Lid5 :  $  Indien toepassing is gegeven aan het tweede, derde of vierde lid, doet het bestuursorgaan hiervan schriftelijk mededeling aan belanghebbenden.",1.0:c:BWBR0005537&artikel=7%3A10&g=2019-11-14,jci1.3:c:BWBR0005537&hoofdstuk=7&afdeling=7.2&artikel=7:10&z=2019-11-14&g=2019-11-14,01-10-2009
97,/Hoofdstuk7/Afdeling7.2/Artikel7:11," $ Lid1 :  $  Indien het bezwaar ontvankelijk is, vindt op grondslag daarvan een heroverweging van het bestreden besluit plaats.  $ Lid2 :  $  Voor zover de heroverweging daartoe aanleiding geeft, herroept het bestuursorgaan het bestreden besluit en neemt het voor zover nodig in de plaats daarvan een nieuw besluit.",1.0:c:BWBR0005537&artikel=7%3A11&g=2019-11-14,jci1.3:c:BWBR0005537&hoofdstuk=7&afdeling=7.2&artikel=7:11&z=2019-11-14&g=2019-11-14,01-01-1994
98,/Hoofdstuk7/Afdeling7.2/Artikel7:12," $ Lid1 :  $  De beslissing op het bezwaar dient te berusten op een deugdelijke motivering, die bij de bekendmaking van de beslissing wordt vermeld. Daarbij wordt, indien ingevolge  van het horen is afgezien, tevens aangegeven op welke grond dat is geschied.artikel 7:3 De beslissing op het bezwaar dient te berusten op een deugdelijke motivering, die bij de bekendmaking van de beslissing wordt vermeld. Daarbij wordt, indien ingevolge  van het horen is afgezien, tevens aangegeven op welke grond dat is geschied.  $ Lid2 :  $  De beslissing wordt bekendgemaakt door toezending of uitreiking aan degenen tot wie zij is gericht. Betreft het een besluit dat niet tot een of meer belanghebbenden is gericht, dan wordt de beslissing tevens bekendgemaakt op dezelfde wijze als waarop dat besluit bekendgemaakt is, tenzij het bestreden besluit in stand wordt gelaten.  $ Lid3 :  $  Zo spoedig mogelijk na de bekendmaking van de beslissing wordt hiervan mededeling gedaan aan de belanghebbenden die in bezwaar of bij de voorbereiding van het bestreden besluit hun zienswijze naar voren hebben gebracht.  $ Lid4 :  $  Bij de mededeling, bedoeld in het derde lid, is  van overeenkomstige toepassing en wordt met het oog op de aanvang van de beroepstermijn zo duidelijk mogelijk aangegeven wanneer de bekendmaking van de beslissing overeenkomstig het tweede lid heeft plaatsgevonden.artikel 6:23 Bij de mededeling, bedoeld in het derde lid, is  van overeenkomstige toepassing en wordt met het oog op de aanvang van de beroepstermijn zo duidelijk mogelijk aangegeven wanneer de bekendmaking van de beslissing overeenkomstig het tweede lid heeft plaatsgevonden.",1.0:c:BWBR0005537&artikel=7%3A12&g=2019-11-14,jci1.3:c:BWBR0005537&hoofdstuk=7&afdeling=7.2&artikel=7:12&z=2019-11-14&g=2019-11-14,01-01-2013
99,/Hoofdstuk7/Afdeling7.2/Artikel7:13," $ Lid1 :  $  Dit artikel is van toepassing indien ten behoeve van de beslissing op het bezwaar een adviescommissie is ingesteld:  $ Onderdeela :  $  die bestaat uit een voorzitter en ten minste twee leden,  $ Onderdeelb :  $  waarvan de voorzitter geen deel uitmaakt van en niet werkzaam is onder verantwoordelijkheid van het bestuursorgaan en  $ Onderdeelc :  $  die voldoet aan eventueel bij wettelijk voorschrift gestelde andere eisen.  $ Lid2 :  $  Indien een commissie over het bezwaar zal adviseren, deelt het bestuursorgaan dit zo spoedig mogelijk mede aan de indiener van het bezwaarschrift.  $ Lid3 :  $  Het horen geschiedt door de commissie. De commissie kan het horen opdragen aan de voorzitter of een lid dat geen deel uitmaakt van en niet werkzaam is onder verantwoordelijkheid van het bestuursorgaan.  $ Lid4 :  $  De commissie beslist over de toepassing van , van , en, voor zover bij wettelijk voorschrift niet anders is bepaald, van .artikel 7:4, zesde lid De commissie beslist over de toepassing van , van , en, voor zover bij wettelijk voorschrift niet anders is bepaald, van .  $ Lid5 :  $  Een vertegenwoordiger van het bestuursorgaan wordt voor het horen uitgenodigd en wordt in de gelegenheid gesteld een toelichting op het standpunt van het bestuursorgaan te geven.  $ Lid6 :  $  Het advies van de commissie wordt schriftelijk uitgebracht en bevat een verslag van het horen.  $ Lid7 :  $  Indien de beslissing op het bezwaar afwijkt van het advies van de commissie, wordt in de beslissing de reden voor die afwijking vermeld en wordt het advies met de beslissing meegezonden.",1.0:c:BWBR0005537&artikel=7%3A13&g=2019-11-14,jci1.3:c:BWBR0005537&hoofdstuk=7&afdeling=7.2&artikel=7:13&z=2019-11-14&g=2019-11-14,01-04-2002
100,/Hoofdstuk7/Afdeling7.2/Artikel7:14,", , de , , met uitzondering van  en , met uitzondering van de , en  en , zijn niet van toepassing op besluiten op grond van deze afdeling.Artikel 3:6, tweede lid",1.0:c:BWBR0005537&artikel=7%3A14&g=2019-11-14,jci1.3:c:BWBR0005537&hoofdstuk=7&afdeling=7.2&artikel=7:14&z=2019-11-14&g=2019-11-14,['01-10-2009']
101,/Hoofdstuk7/Afdeling7.2/Artikel7:14a,"Indien door een ander dan de aanvrager bezwaar is gemaakt tegen een besluit op aanvraag, wordt de aanvrager voor de toepassing van  gelijkgesteld met de indiener van het bezwaarschrift.paragraaf 4.1.3.2",1.0:c:BWBR0005537&artikel=7%3A14a&g=2019-11-14,jci1.3:c:BWBR0005537&hoofdstuk=7&afdeling=7.2&artikel=7:14a&z=2019-11-14&g=2019-11-14,01-10-2009
102,/Hoofdstuk7/Afdeling7.2/Artikel7:15," $ Lid1 :  $  Voor de behandeling van het bezwaar is geen recht verschuldigd.  $ Lid2 :  $  De kosten, die de belanghebbende in verband met de behandeling van het bezwaar redelijkerwijs heeft moeten maken, worden door het bestuursorgaan uitsluitend vergoed op verzoek van de belanghebbende voorzover het bestreden besluit wordt herroepen wegens aan het bestuursorgaan te wijten onrechtmatigheid.  $ Lid3 :  $  Het verzoek wordt gedaan voordat het bestuursorgaan op het bezwaar heeft beslist. Het bestuursorgaan beslist op het verzoek bij de beslissing op het bezwaar.  $ Lid4 :  $  Bij algemene maatregel van bestuur worden nadere regels gesteld over de kosten waarop de vergoeding uitsluitend betrekking kan hebben en over de wijze waarop het bedrag van de kosten wordt vastgesteld.  $ Lid5 :  $  Indien aan de belanghebbende in verband met het bezwaar een toevoeging is verleend op grond van de , betaalt het bestuursorgaan de toe te kennen vergoeding aan de rechtsbijstandverlener. De rechtsbijstandverlener stelt de belanghebbende zoveel mogelijk schadeloos voor de door deze voldane eigen bijdrage. De rechtsbijstandverlener doet aan de Raad voor rechtsbijstand opgave van een kostenvergoeding door het bestuursorgaan.Wet op de rechtsbijstand",1.0:c:BWBR0005537&artikel=7%3A15&g=2019-11-14,jci1.3:c:BWBR0005537&hoofdstuk=7&afdeling=7.2&artikel=7:15&z=2019-11-14&g=2019-11-14,01-01-2013
103,/Hoofdstuk7/Afdeling7.3/Artikel7:16," $ Lid1 :  $  Voordat een beroepsorgaan op het beroep beslist, stelt het belanghebbenden in de gelegenheid te worden gehoord.  $ Lid2 :  $  Het beroepsorgaan stelt daarvan in ieder geval de indiener van het beroepschrift op de hoogte, alsmede het bestuursorgaan dat het besluit heeft genomen en de belanghebbenden die bij de voorbereiding van het besluit of bij de behandeling van het bezwaarschrift hun zienswijze naar voren hebben gebracht.",1.0:c:BWBR0005537&artikel=7%3A16&g=2019-11-14,jci1.3:c:BWBR0005537&hoofdstuk=7&afdeling=7.3&artikel=7:16&z=2019-11-14&g=2019-11-14,01-01-1994
104,/Hoofdstuk7/Afdeling7.3/Artikel7:17,"Van het horen van een belanghebbende kan worden afgezien indien:  $ Onderdeela :  $  het beroep kennelijk niet-ontvankelijk is,  $ Onderdeelb :  $  het beroep kennelijk ongegrond is,  $ Onderdeelc :  $  de belanghebbende heeft verklaard geen gebruik te willen maken van het recht te worden gehoord, of  $ Onderdeeld :  $  de belanghebbende niet binnen een door het bestuursorgaan gestelde redelijke termijn verklaart dat hij gebruik wil maken van het recht te worden gehoord.",1.0:c:BWBR0005537&artikel=7%3A17&g=2019-11-14,jci1.3:c:BWBR0005537&hoofdstuk=7&afdeling=7.3&artikel=7:17&z=2019-11-14&g=2019-11-14,01-01-2013
105,/Hoofdstuk7/Afdeling7.3/Artikel7:18," $ Lid1 :  $  Tot tien dagen voor het horen kunnen belanghebbenden nadere stukken indienen.  $ Lid2 :  $  Het beroepsorgaan legt het beroepschrift en alle verder op de zaak betrekking hebbende stukken voorafgaand aan het horen gedurende ten minste een week voor belanghebbenden ter inzage.  $ Lid3 :  $  Bij de oproeping voor het horen worden belanghebbenden gewezen op het eerste lid en wordt vermeld waar en wanneer de stukken ter inzage zullen liggen.  $ Lid4 :  $  Belanghebbenden kunnen van deze stukken tegen vergoeding van ten hoogste de kosten afschriften verkrijgen.  $ Lid5 :  $  Voor zover de belanghebbenden daarmee instemmen, kan toepassing van het tweede lid achterwege worden gelaten.  $ Lid6 :  $  Het beroepsorgaan kan, al dan niet op verzoek van een belanghebbende, toepassing van het tweede lid voorts achterwege laten, voor zover geheimhouding om gewichtige redenen is geboden. Van de toepassing van deze bepaling wordt mededeling gedaan.  $ Lid7 :  $  Gewichtige redenen zijn in ieder geval niet aanwezig, voor zover ingevolge de  de verplichting bestaat een verzoek om informatie, vervat in deze stukken, in te willigen.Wet openbaarheid van bestuur  $ Lid8 :  $  Indien een gewichtige reden is gelegen in de vrees voor schade aan de lichamelijke of geestelijke gezondheid van een belanghebbende, kan inzage van de desbetreffende stukken worden voorbehouden aan een gemachtigde die hetzij advocaat hetzij arts is.",1.0:c:BWBR0005537&artikel=7%3A18&g=2019-11-14,jci1.3:c:BWBR0005537&hoofdstuk=7&afdeling=7.3&artikel=7:18&z=2019-11-14&g=2019-11-14,01-01-1994
106,/Hoofdstuk7/Afdeling7.3/Artikel7:19," $ Lid1 :  $  Het horen geschiedt door het beroepsorgaan.  $ Lid2 :  $  Bij of krachtens de wet kan het horen worden opgedragen aan een adviescommissie waarin een of meer leden zitting hebben die geen deel uitmaken van en niet werkzaam zijn onder verantwoordelijkheid van het beroepsorgaan.  $ Lid3 :  $  Het horen geschiedt in het openbaar, tenzij het beroepsorgaan op verzoek van een belanghebbende of om gewichtige redenen ambtshalve anders beslist.",1.0:c:BWBR0005537&artikel=7%3A19&g=2019-11-14,jci1.3:c:BWBR0005537&hoofdstuk=7&afdeling=7.3&artikel=7:19&z=2019-11-14&g=2019-11-14,01-01-1994
107,/Hoofdstuk7/Afdeling7.3/Artikel7:20," $ Lid1 :  $  Belanghebbenden worden in elkaars aanwezigheid gehoord.  $ Lid2 :  $  Ambtshalve of op verzoek kunnen belanghebbenden afzonderlijk worden gehoord, indien aannemelijk is dat gezamenlijk horen een zorgvuldige behandeling zal belemmeren of dat tijdens het horen feiten of omstandigheden bekend zullen worden waarvan geheimhouding om gewichtige redenen is geboden.  $ Lid3 :  $  Wanneer belanghebbenden afzonderlijk zijn gehoord, wordt ieder van hen op de hoogte gesteld van het verhandelde tijdens het horen buiten zijn aanwezigheid.  $ Lid4 :  $  Het beroepsorgaan kan, al dan niet op verzoek van een belanghebbende, toepassing van het derde lid achterwege laten, voor zover geheimhouding om gewichtige redenen is geboden. , is van overeenkomstige toepassing.Artikel 7:18, zesde lid, tweede volzin, zevende en achtste lid Het beroepsorgaan kan, al dan niet op verzoek van een belanghebbende, toepassing van het derde lid achterwege laten, voor zover geheimhouding om gewichtige redenen is geboden. , is van overeenkomstige toepassing.",1.0:c:BWBR0005537&artikel=7%3A20&g=2019-11-14,jci1.3:c:BWBR0005537&hoofdstuk=7&afdeling=7.3&artikel=7:20&z=2019-11-14&g=2019-11-14,01-01-1994
108,/Hoofdstuk7/Afdeling7.3/Artikel7:21,Van het horen wordt een verslag gemaakt.,1.0:c:BWBR0005537&artikel=7%3A21&g=2019-11-14,jci1.3:c:BWBR0005537&hoofdstuk=7&afdeling=7.3&artikel=7:21&z=2019-11-14&g=2019-11-14,01-01-1994
109,/Hoofdstuk7/Afdeling7.3/Artikel7:22,Op verzoek van de belanghebbende kunnen door hem meegebrachte getuigen en deskundigen worden gehoord.,1.0:c:BWBR0005537&artikel=7%3A22&g=2019-11-14,jci1.3:c:BWBR0005537&hoofdstuk=7&afdeling=7.3&artikel=7:22&z=2019-11-14&g=2019-11-14,12-03-2002
110,/Hoofdstuk7/Afdeling7.3/Artikel7:23,"Wanneer na het horen aan het beroepsorgaan feiten of omstandigheden bekend worden die voor de op het beroep te nemen beslissing van aanmerkelijk belang kunnen zijn, wordt dit aan belanghebbenden meegedeeld en worden zij in de gelegenheid gesteld daarover te worden gehoord.",1.0:c:BWBR0005537&artikel=7%3A23&g=2019-11-14,jci1.3:c:BWBR0005537&hoofdstuk=7&afdeling=7.3&artikel=7:23&z=2019-11-14&g=2019-11-14,01-01-1994
111,/Hoofdstuk7/Afdeling7.3/Artikel7:24," $ Lid1 :  $  Het beroepsorgaan beslist binnen zestien weken, gerekend vanaf de dag na die waarop de termijn voor het indienen van het beroepschrift is verstreken.  $ Lid2 :  $  Indien het beroepsorgaan evenwel behoort tot dezelfde rechtspersoon als het bestuursorgaan tegen welks besluit het beroep is gericht, beslist het binnen zes weken of  indien een commissie als bedoeld in , is ingesteld  binnen twaalf weken, gerekend vanaf de dag na die waarop de termijn voor het indienen van het beroepschrift is verstreken.artikel 7:19, tweede lid Indien het beroepsorgaan evenwel behoort tot dezelfde rechtspersoon als het bestuursorgaan tegen welks besluit het beroep is gericht, beslist het binnen zes weken of  indien een commissie als bedoeld in , is ingesteld  binnen twaalf weken, gerekend vanaf de dag na die waarop de termijn voor het indienen van het beroepschrift is verstreken.  $ Lid3 :  $  De termijn wordt opgeschort gerekend vanaf de dag na die waarop de indiener is verzocht een verzuim als bedoeld in  te herstellen, tot de dag waarop het verzuim is hersteld of de daarvoor gestelde termijn ongebruikt is verstreken.artikel 6:6 De termijn wordt opgeschort gerekend vanaf de dag na die waarop de indiener is verzocht een verzuim als bedoeld in  te herstellen, tot de dag waarop het verzuim is hersteld of de daarvoor gestelde termijn ongebruikt is verstreken.  $ Lid4 :  $  Het beroepsorgaan kan de beslissing voor ten hoogste tien weken verdagen.  $ Lid5 :  $  In het geval, bedoeld in het tweede lid, kan het beroepsorgaan de beslissing echter voor ten hoogste zes weken verdagen.  $ Lid6 :  $  Verder uitstel is mogelijk voor zover:  $ Onderdeela :  $  alle belanghebbenden daarmee instemmen,  $ Onderdeelb :  $  de indiener van het beroepschrift daarmee instemt en andere belanghebbenden daardoor niet in hun belangen kunnen worden geschaad, of  $ Onderdeelc :  $  dit nodig is in verband met de naleving van wettelijke procedurevoorschriften.  $ Lid7 :  $  Indien toepassing is gegeven aan het derde, vierde, vijfde of zesde lid, doet het beroepsorgaan hiervan schriftelijk mededeling aan belanghebbenden.",1.0:c:BWBR0005537&artikel=7%3A24&g=2019-11-14,jci1.3:c:BWBR0005537&hoofdstuk=7&afdeling=7.3&artikel=7:24&z=2019-11-14&g=2019-11-14,01-10-2009
112,/Hoofdstuk7/Afdeling7.3/Artikel7:25,"Voor zover het beroepsorgaan het beroep ontvankelijk en gegrond acht, vernietigt het het bestreden besluit en neemt het voor zover nodig in de plaats daarvan een nieuw besluit.",1.0:c:BWBR0005537&artikel=7%3A25&g=2019-11-14,jci1.3:c:BWBR0005537&hoofdstuk=7&afdeling=7.3&artikel=7:25&z=2019-11-14&g=2019-11-14,01-01-1994
113,/Hoofdstuk7/Afdeling7.3/Artikel7:26," $ Lid1 :  $  De beslissing op het beroep dient te berusten op een deugdelijke motivering, die bij de bekendmaking van de beslissing wordt vermeld. Daarbij wordt, indien ingevolge  van het horen is afgezien, tevens aangegeven op welke grond dat is geschied.artikel 7:17 De beslissing op het beroep dient te berusten op een deugdelijke motivering, die bij de bekendmaking van de beslissing wordt vermeld. Daarbij wordt, indien ingevolge  van het horen is afgezien, tevens aangegeven op welke grond dat is geschied.  $ Lid2 :  $  Indien de beslissing afwijkt van het advies van een commissie als bedoeld in , worden in de beslissing de redenen voor die afwijking vermeld en wordt het advies met de beslissing meegezonden.artikel 7:19, tweede lid Indien de beslissing afwijkt van het advies van een commissie als bedoeld in , worden in de beslissing de redenen voor die afwijking vermeld en wordt het advies met de beslissing meegezonden.  $ Lid3 :  $  De beslissing wordt bekendgemaakt door toezending of uitreiking aan degenen tot wie zij is gericht. Betreft het een besluit dat niet tot een of meer belanghebbenden was gericht, dan wordt de beslissing bekendgemaakt op dezelfde wijze als waarop dat besluit bekendgemaakt is.  $ Lid4 :  $  Zo spoedig mogelijk na de bekendmaking van de beslissing wordt hiervan mededeling gedaan aan het bestuursorgaan tegen welks besluit het beroep was gericht, aan degenen tot wie het bestreden besluit was gericht en aan de belanghebbenden die in beroep hun zienswijze naar voren hebben gebracht.  $ Lid5 :  $  Bij de mededeling, bedoeld in het vierde lid, is  van overeenkomstige toepassing en wordt met het oog op de aanvang van de beroepstermijn zo duidelijk mogelijk aangegeven wanneer de bekendmaking van de beslissing overeenkomstig het derde lid heeft plaatsgevonden.artikel 6:23 Bij de mededeling, bedoeld in het vierde lid, is  van overeenkomstige toepassing en wordt met het oog op de aanvang van de beroepstermijn zo duidelijk mogelijk aangegeven wanneer de bekendmaking van de beslissing overeenkomstig het derde lid heeft plaatsgevonden.",1.0:c:BWBR0005537&artikel=7%3A26&g=2019-11-14,jci1.3:c:BWBR0005537&hoofdstuk=7&afdeling=7.3&artikel=7:26&z=2019-11-14&g=2019-11-14,01-01-1994
114,/Hoofdstuk7/Afdeling7.3/Artikel7:27,", , de , , met uitzondering van  en , met uitzondering van de , en  en , zijn niet van toepassing op besluiten op grond van deze afdeling.Artikel 3:6, tweede lid",1.0:c:BWBR0005537&artikel=7%3A27&g=2019-11-14,jci1.3:c:BWBR0005537&hoofdstuk=7&afdeling=7.3&artikel=7:27&z=2019-11-14&g=2019-11-14,['01-10-2009']
115,/Hoofdstuk7/Afdeling7.3/Artikel7:27a,"Indien het beroep tegen een besluit op aanvraag is ingesteld door een ander dan de aanvrager, wordt de aanvrager voor de toepassing van  gelijkgesteld met degene die het beroep heeft ingesteld.paragraaf 4.1.3.2",1.0:c:BWBR0005537&artikel=7%3A27a&g=2019-11-14,jci1.3:c:BWBR0005537&hoofdstuk=7&afdeling=7.3&artikel=7:27a&z=2019-11-14&g=2019-11-14,01-10-2009
116,/Hoofdstuk7/Afdeling7.3/Artikel7:28," $ Lid1 :  $  Voor de behandeling van het beroep is geen recht verschuldigd.  $ Lid2 :  $  De kosten, die de belanghebbende in verband met de behandeling van het beroep redelijkerwijs heeft moeten maken, worden door het bestuursorgaan uitsluitend vergoed op verzoek van de belanghebbende voorzover het bestreden besluit wordt herroepen wegens aan het bestuursorgaan te wijten onrechtmatigheid. In dat geval stelt het beroepsorgaan de vergoeding vast die het bestuursorgaan verschuldigd is.  $ Lid3 :  $  Indien aan de belanghebbende in verband met het beroep een toevoeging is verleend op grond van de , betaalt het bestuursorgaan de toe te kennen vergoeding aan de rechtsbijstandverlener. De rechtsbijstandverlener stelt de belanghebbende zoveel mogelijk schadeloos voor de door deze voldane eigen bijdrage. De rechtsbijstandverlener doet aan de Raad voor rechtsbijstand opgave van een kostenvergoeding door het bestuursorgaan.Wet op de rechtsbijstand  $ Lid4 :  $  Het verzoek wordt gedaan voordat het beroepsorgaan op het beroep heeft beslist. Het beroepsorgaan beslist op het verzoek bij de beslissing op het beroep.  $ Lid5 :  $  Bij algemene maatregel van bestuur worden nadere regels gesteld over de kosten waarop de vergoeding uitsluitend betrekking kan hebben en over de wijze waarop het bedrag van de kosten wordt vastgesteld.",1.0:c:BWBR0005537&artikel=7%3A28&g=2019-11-14,jci1.3:c:BWBR0005537&hoofdstuk=7&afdeling=7.3&artikel=7:28&z=2019-11-14&g=2019-11-14,01-01-2013
117,/Hoofdstuk11/Artikel11:1,,1.0:c:BWBR0005537&artikel=11%3A1&g=2019-11-14,jci1.3:c:BWBR0005537&hoofdstuk=11&artikel=11:1&z=2019-11-14&g=2019-11-14,01-01-2013
118,/Hoofdstuk11/Artikel11:2," $ Lid1 :  $  Het bedrag van de vergoeding, bedoeld in , en de bedragen, vastgesteld in de , en , en krachtens de , , en , worden jaarlijks met ingang van 1 januari bij regeling van Onze Minister van Veiligheid en Justitie gewijzigd voor zover de consumentenprijsindex daartoe aanleiding geeft. Daarbij worden de bedragen rekenkundig afgerond op gehele euros.artikel 4:113, eerste lid Het bedrag van de vergoeding, bedoeld in , en de bedragen, vastgesteld in de , en , en krachtens de , , en , worden jaarlijks met ingang van 1 januari bij regeling van Onze Minister van Veiligheid en Justitie gewijzigd voor zover de consumentenprijsindex daartoe aanleiding geeft. Daarbij worden de bedragen rekenkundig afgerond op gehele euros.  $ Lid2 :  $  De overige bij of krachtens deze wet vastgestelde bedragen kunnen bij regeling van Onze Minister van Veiligheid en Justitie worden gewijzigd voor zover de consumentenprijsindex daartoe aanleiding geeft.",1.0:c:BWBR0005537&artikel=11%3A2&g=2019-11-14,jci1.3:c:BWBR0005537&hoofdstuk=11&artikel=11:2&z=2019-11-14&g=2019-11-14,19-09-2018
119,/Hoofdstuk11/Artikel11:3,"Bij een wijziging van een bijlage bij deze wet blijft de  zoals deze luidde voor het tijdstip van inwerkingtreding van de wijziging van toepassing op het beroep of hoger beroep tegen een besluit dat, onderscheidenlijk een uitspraak die voor dat tijdstip is bekendgemaakt.bijlage",1.0:c:BWBR0005537&artikel=11%3A3&g=2019-11-14,jci1.3:c:BWBR0005537&hoofdstuk=11&artikel=11:3&z=2019-11-14&g=2019-11-14,01-01-2013
120,/Hoofdstuk11/Artikel11:4,Deze wet wordt aangehaald als: Algemene wet bestuursrecht.,1.0:c:BWBR0005537&artikel=11%3A4&g=2019-11-14,jci1.3:c:BWBR0005537&hoofdstuk=11&artikel=11:4&z=2019-11-14&g=2019-11-14,01-01-1998
